EESchema Schematic File Version 4
LIBS:usb_sound_card-cache
EELAYER 29 0
EELAYER END
$Descr B 17000 11000
encoding utf-8
Sheet 2 2
Title "USB Sound Card"
Date "2019-09-25"
Rev "REV100"
Comp ""
Comment1 ""
Comment2 "Christian Daigneault-St-Arnaud"
Comment3 ""
Comment4 ""
$EndDescr
Text Notes 7050 1150 0    250  ~ 50
TOP LEVEL
Text Notes 14400 7250 0    250  ~ 50
Mecanical
$Comp
L Connectors:Mounting_Hole_3mm H3
U 1 1 5C1B57CE
P 14700 8850
F 0 "H3" H 14700 9150 60  0000 C CNN
F 1 "Mounting_Hole_3mm" H 14700 8550 60  0001 C CNN
F 2 "Connectors:Mounting_Hole_3mm" H 14700 7950 60  0001 C CNN
F 3 "D" H 14700 7850 60  0001 C CNN
F 4 "N/A" H 14700 8450 60  0001 C CNN "Supplier"
F 5 "N/A" H 14700 8350 60  0001 C CNN "Supplier Part Number"
F 6 "N/A" H 14700 8250 60  0001 C CNN "Manufacturer"
F 7 "N/A" H 14700 8150 60  0001 C CNN "Manufacturer Part Number"
F 8 "N/A" H 14700 8050 60  0001 C CNN "Description"
	1    14700 8850
	1    0    0    -1  
$EndComp
$Comp
L Connectors:Mounting_Hole_3mm H4
U 1 1 5C1B58C8
P 15850 8850
F 0 "H4" H 15900 8550 60  0000 R CNN
F 1 "Mounting_Hole_3mm" H 15850 8550 60  0001 C CNN
F 2 "Connectors:Mounting_Hole_3mm" H 15850 7950 60  0001 C CNN
F 3 "D" H 15850 7850 60  0001 C CNN
F 4 "N/A" H 15850 8450 60  0001 C CNN "Supplier"
F 5 "N/A" H 15850 8350 60  0001 C CNN "Supplier Part Number"
F 6 "N/A" H 15850 8250 60  0001 C CNN "Manufacturer"
F 7 "N/A" H 15850 8150 60  0001 C CNN "Manufacturer Part Number"
F 8 "N/A" H 15850 8050 60  0001 C CNN "Description"
	1    15850 8850
	1    0    0    1   
$EndComp
$Comp
L Connectors:Mounting_Hole_3mm H1
U 1 1 5C1D6E25
P 14700 7950
F 0 "H1" H 14700 8250 60  0000 C CNN
F 1 "Mounting_Hole_3mm" H 14700 7650 60  0001 C CNN
F 2 "Connectors:Mounting_Hole_3mm" H 14700 7050 60  0001 C CNN
F 3 "D" H 14700 6950 60  0001 C CNN
F 4 "N/A" H 14700 7550 60  0001 C CNN "Supplier"
F 5 "N/A" H 14700 7450 60  0001 C CNN "Supplier Part Number"
F 6 "N/A" H 14700 7350 60  0001 C CNN "Manufacturer"
F 7 "N/A" H 14700 7250 60  0001 C CNN "Manufacturer Part Number"
F 8 "N/A" H 14700 7150 60  0001 C CNN "Description"
	1    14700 7950
	1    0    0    -1  
$EndComp
$Comp
L Connectors:Mounting_Hole_3mm H2
U 1 1 5C1D6E30
P 15850 7950
F 0 "H2" H 15900 7650 60  0000 R CNN
F 1 "Mounting_Hole_3mm" H 15850 7650 60  0001 C CNN
F 2 "Connectors:Mounting_Hole_3mm" H 15850 7050 60  0001 C CNN
F 3 "D" H 15850 6950 60  0001 C CNN
F 4 "N/A" H 15850 7550 60  0001 C CNN "Supplier"
F 5 "N/A" H 15850 7450 60  0001 C CNN "Supplier Part Number"
F 6 "N/A" H 15850 7350 60  0001 C CNN "Manufacturer"
F 7 "N/A" H 15850 7250 60  0001 C CNN "Manufacturer Part Number"
F 8 "N/A" H 15850 7150 60  0001 C CNN "Description"
	1    15850 7950
	1    0    0    1   
$EndComp
Wire Wire Line
	15000 7950 15050 7950
Wire Wire Line
	15050 7950 15050 8050
Wire Wire Line
	15000 8850 15050 8850
Wire Wire Line
	16150 7950 16200 7950
Wire Wire Line
	16200 7950 16200 8050
Wire Wire Line
	16150 8850 16200 8850
Wire Wire Line
	16200 8850 16200 8950
$Comp
L Interface:PCM2912APJTR U1
U 1 1 5D89E136
P 6650 4750
F 0 "U1" H 6650 6200 60  0000 C CNN
F 1 "PCM2912APJTR" H 6650 3750 60  0000 C CNN
F 2 "IC:QFP-32_7x7_p0.8" H 6650 3150 60  0001 C CNN
F 3 "http://www.ti.com/lit/ds/symlink/pcm2912a.pdf" H 6650 3050 60  0001 C CNN
F 4 "Digikey" H 6650 3650 60  0001 C CNN "Supplier"
F 5 "296-39145-1-ND" H 6650 3550 60  0001 C CNN "Supplier Part Number"
F 6 "Texas Instruments" H 6650 3450 60  0001 C CNN "Manufacturer"
F 7 "PCM2912APJTR" H 6650 3350 60  0001 C CNN "Manufacturer Part Number"
F 8 "IC STEREO AUD CODEC W/USB 32TQFP" H 6650 3250 60  0001 C CNN "Description"
	1    6650 4750
	1    0    0    -1  
$EndComp
$Comp
L Power_Port:GND #PWR019
U 1 1 5D8A033A
P 5900 5900
F 0 "#PWR019" H 5900 5730 50  0001 C CNN
F 1 "GND" H 5900 5800 50  0000 C CNN
F 2 "" H 5900 6000 60  0000 C CNN
F 3 "" H 5880 5810 60  0000 C CNN
	1    5900 5900
	1    0    0    -1  
$EndComp
Wire Wire Line
	6000 5300 5900 5300
Connection ~ 5900 5300
Wire Wire Line
	5900 5300 5900 5400
Wire Wire Line
	6000 5400 5900 5400
Connection ~ 5900 5400
Wire Wire Line
	5900 5400 5900 5500
Wire Wire Line
	6000 5500 5900 5500
Connection ~ 5900 5500
Wire Wire Line
	5900 5500 5900 5600
$Comp
L Amplifiers:TPA6132A2RTER U2
U 1 1 5D8A1B59
P 11200 5300
F 0 "U2" H 11200 6000 60  0000 C CNN
F 1 "TPA6132A2RTER" H 11200 4550 60  0000 C CNN
F 2 "IC:QFN-16_3x3_p0.5" H 11200 3950 60  0001 C CNN
F 3 "http://www.ti.com/lit/ds/symlink/tpa6132a2.pdf" H 11200 3850 60  0001 C CNN
F 4 "Digikey" H 11200 4450 60  0001 C CNN "Supplier"
F 5 "296-24053-1-ND" H 11200 4350 60  0001 C CNN "Supplier Part Number"
F 6 "Texas Instruments" H 11200 4250 60  0001 C CNN "Manufacturer"
F 7 "TPA6132A2RTER" H 11200 4150 60  0001 C CNN "Manufacturer Part Number"
F 8 "IC AMP CLASS AB STEREO 25MW 16WQFN" H 11200 4050 60  0001 C CNN "Description"
	1    11200 5300
	1    0    0    -1  
$EndComp
$Comp
L Crystals_Oscillators:ABLS-6.000MHZ-B4-T Y1
U 1 1 5D8A6E11
P 4400 4900
F 0 "Y1" H 4400 5100 60  0000 C CNN
F 1 "ABLS-6.000MHZ-B4-T" H 4400 4700 60  0000 C CNN
F 2 "Crystals:HC49_US" H 4400 4000 60  0001 C CNN
F 3 "https://abracon.com/Resonators/abls.pdf" H 4400 3900 60  0001 C CNN
F 4 "Digikey" H 4400 4500 60  0001 C CNN "Supplier"
F 5 "535-10208-1-ND" H 4400 4400 60  0001 C CNN "Supplier Part Number"
F 6 "Abracon LLC" H 4400 4300 60  0001 C CNN "Manufacturer"
F 7 "ABLS-6.000MHZ-B4-T" H 4400 4200 60  0001 C CNN "Manufacturer Part Number"
F 8 "CRYSTAL 6.0000MHZ 18PF SMD" H 4400 4100 60  0001 C CNN "Description"
F 9 "6MHz" H 4400 4600 50  0001 C CNN "Frequency"
	1    4400 4900
	1    0    0    -1  
$EndComp
Wire Wire Line
	4600 4900 5000 4900
Wire Wire Line
	5000 4900 5000 5350
Wire Wire Line
	4200 4900 3800 4900
$Comp
L Capacitors:885012007053 C20
U 1 1 5D8A863C
P 5000 5600
F 0 "C20" V 4905 5705 60  0000 L CNN
F 1 "885012007053" H 4950 5250 60  0001 C CNN
F 2 "Capacitors:C0805" H 4950 4650 60  0001 C CNN
F 3 "" H 4950 4550 60  0001 C CNN
F 4 "Digikey" H 4950 5150 60  0001 C CNN "Supplier"
F 5 "732-7848-1-ND" H 4950 5050 60  0001 C CNN "Supplier Part Number"
F 6 "Wurth Electronics Inc." H 4950 4950 60  0001 C CNN "Manufacturer"
F 7 "885012007053" H 4950 4850 60  0001 C CNN "Manufacturer Part Number"
F 8 "CAP CER 22PF 50V C0G/NP0 0805" H 4950 4750 60  0001 C CNN "Description"
F 9 "22pF" V 5003 5705 50  0000 L CNN "Capacitance (Farad)"
F 10 "±5%" H 5210 5480 50  0001 C CNN "Tolerance (%)"
F 11 "50V" H 4950 5410 50  0001 C CNN "Voltage Rated (Volt)"
	1    5000 5600
	0    1    1    0   
$EndComp
$Comp
L Capacitors:885012007053 C19
U 1 1 5D8A8AF8
P 3800 5600
F 0 "C19" V 3705 5705 60  0000 L CNN
F 1 "885012007053" H 3750 5250 60  0001 C CNN
F 2 "Capacitors:C0805" H 3750 4650 60  0001 C CNN
F 3 "" H 3750 4550 60  0001 C CNN
F 4 "Digikey" H 3750 5150 60  0001 C CNN "Supplier"
F 5 "732-7848-1-ND" H 3750 5050 60  0001 C CNN "Supplier Part Number"
F 6 "Wurth Electronics Inc." H 3750 4950 60  0001 C CNN "Manufacturer"
F 7 "885012007053" H 3750 4850 60  0001 C CNN "Manufacturer Part Number"
F 8 "CAP CER 22PF 50V C0G/NP0 0805" H 3750 4750 60  0001 C CNN "Description"
F 9 "22pF" V 3803 5705 50  0000 L CNN "Capacitance (Farad)"
F 10 "±5%" H 4010 5480 50  0001 C CNN "Tolerance (%)"
F 11 "50V" H 3750 5410 50  0001 C CNN "Voltage Rated (Volt)"
	1    3800 5600
	0    1    1    0   
$EndComp
Wire Wire Line
	4600 5350 5000 5350
Connection ~ 5000 5350
Wire Wire Line
	5000 5350 5000 5400
$Comp
L Power_Port:GND #PWR017
U 1 1 5D8A9891
P 3800 5900
F 0 "#PWR017" H 3800 5730 50  0001 C CNN
F 1 "GND" H 3800 5800 50  0000 C CNN
F 2 "" H 3800 6000 60  0000 C CNN
F 3 "" H 3780 5810 60  0000 C CNN
	1    3800 5900
	1    0    0    -1  
$EndComp
Wire Wire Line
	3800 5700 3800 5800
$Comp
L Power_Port:GND #PWR018
U 1 1 5D8AA105
P 5000 5900
F 0 "#PWR018" H 5000 5730 50  0001 C CNN
F 1 "GND" H 5000 5800 50  0000 C CNN
F 2 "" H 5000 6000 60  0000 C CNN
F 3 "" H 4980 5810 60  0000 C CNN
	1    5000 5900
	1    0    0    -1  
$EndComp
Wire Wire Line
	5000 5700 5000 5800
Wire Wire Line
	6000 4600 3800 4600
Wire Wire Line
	3800 4600 3800 4900
Connection ~ 3800 4900
Wire Wire Line
	6000 4700 5000 4700
Wire Wire Line
	5000 4700 5000 4900
Connection ~ 5000 4900
Wire Wire Line
	6000 5000 5900 5000
$Comp
L Power_Port:VDD #PWR04
U 1 1 5D8B24EA
P 7400 3400
F 0 "#PWR04" H 7400 3250 50  0001 C CNN
F 1 "VDD" H 7400 3573 50  0000 C CNN
F 2 "" H 7400 3400 60  0000 C CNN
F 3 "" H 7400 3250 60  0000 C CNN
	1    7400 3400
	1    0    0    -1  
$EndComp
Wire Wire Line
	7300 3450 7400 3450
Wire Wire Line
	7400 3450 7400 3400
Wire Wire Line
	5600 4900 6000 4900
Text Label 5600 4900 0    60   ~ 0
VCCP
Text Label 7650 3850 2    60   ~ 0
VCCP
$Comp
L Connectors:10118194-0001LF J2
U 1 1 5D8B5F27
P 1350 3700
F 0 "J2" H 1350 4081 60  0000 C CNN
F 1 "10118194-0001LF" H 1350 3150 60  0001 C CNN
F 2 "Connectors:10118194" H 1350 2550 60  0001 C CNN
F 3 "https://cdn.amphenol-icc.com/media/wysiwyg/files/drawing/10118194.pdf" H 1350 2450 60  0001 C CNN
F 4 "Digikey" H 1350 3050 60  0001 C CNN "Supplier"
F 5 "609-4618-1-ND" H 1350 2950 60  0001 C CNN "Supplier Part Number"
F 6 "Amphenol FCI" H 1350 2850 60  0001 C CNN "Manufacturer"
F 7 "10118194-0001LF" H 1350 2750 60  0001 C CNN "Manufacturer Part Number"
F 8 "CONN USB MICRO B RECPT SMT & TH R/A" H 1350 2650 60  0001 C CNN "Description"
	1    1350 3700
	-1   0    0    -1  
$EndComp
$Comp
L Diodes:CM1231-02SO D1
U 1 1 5D8B9110
P 3800 3600
F 0 "D1" H 3800 3800 50  0000 C CNN
F 1 "CM1231-02SO" H 3800 3300 60  0000 C CNN
F 2 "Diodes:SOT-23-6" H 3800 2680 60  0001 C CNN
F 3 "http://www.onsemi.com/pub/Collateral/CM1231%20DATA%20SHEET.PDF" H 3800 2580 60  0001 C CNN
F 4 "Digikey" H 3800 3180 60  0001 C CNN "Supplier"
F 5 "CM1231-02SOOSCT-ND" H 3800 3080 60  0001 C CNN "Supplier Part Number"
F 6 "ON Semiconductor" H 3800 2980 60  0001 C CNN "Manufacturer"
F 7 "CM1231-02SO" H 3800 2880 60  0001 C CNN "Manufacturer Part Number"
F 8 "TVS DIODE 5V 9V SOT23-6" H 3800 2780 60  0001 C CNN "Description"
	1    3800 3600
	1    0    0    -1  
$EndComp
Wire Wire Line
	1900 3500 2100 3500
Wire Wire Line
	1900 3600 3300 3600
Wire Wire Line
	1900 3700 3300 3700
Wire Wire Line
	1900 3900 2000 3900
Wire Wire Line
	2000 3900 2000 4100
$Comp
L Power_Port:GND #PWR010
U 1 1 5D8BEA60
P 2000 4400
F 0 "#PWR010" H 2000 4230 50  0001 C CNN
F 1 "GND" H 2000 4300 50  0000 C CNN
F 2 "" H 2000 4500 60  0000 C CNN
F 3 "" H 1980 4310 60  0000 C CNN
	1    2000 4400
	1    0    0    -1  
$EndComp
NoConn ~ 1900 3800
$Comp
L Power_Port:GND #PWR08
U 1 1 5D8BFBC7
P 3200 4100
F 0 "#PWR08" H 3200 3930 50  0001 C CNN
F 1 "GND" H 3200 4000 50  0000 C CNN
F 2 "" H 3200 4200 60  0000 C CNN
F 3 "" H 3180 4010 60  0000 C CNN
	1    3200 4100
	1    0    0    -1  
$EndComp
Wire Wire Line
	3300 3800 3200 3800
Wire Wire Line
	3200 3800 3200 4000
Wire Wire Line
	4300 3600 4750 3600
Wire Wire Line
	5150 3600 6000 3600
Wire Wire Line
	4300 3700 4400 3700
Wire Wire Line
	5150 3700 6000 3700
$Comp
L Power_Port:5V_USB #PWR03
U 1 1 5D8C666E
P 3250 3300
F 0 "#PWR03" H 3250 3150 50  0001 C CNN
F 1 "5V_USB" H 3250 3473 50  0000 C CNN
F 2 "" H 3250 3300 60  0000 C CNN
F 3 "" H 3250 3150 60  0000 C CNN
	1    3250 3300
	1    0    0    -1  
$EndComp
Wire Wire Line
	3250 3350 3250 3500
Wire Wire Line
	3250 3500 3300 3500
$Comp
L Power_Port:5V_USB #PWR01
U 1 1 5D8C7ADB
P 4850 2850
F 0 "#PWR01" H 4850 2700 50  0001 C CNN
F 1 "5V_USB" H 4850 3023 50  0000 C CNN
F 2 "" H 4850 2850 60  0000 C CNN
F 3 "" H 4850 2700 60  0000 C CNN
	1    4850 2850
	1    0    0    -1  
$EndComp
Wire Wire Line
	4850 2850 4850 3000
$Comp
L Power_Port:5V_USB #PWR09
U 1 1 5D8C9F54
P 9550 4150
F 0 "#PWR09" H 9550 4000 50  0001 C CNN
F 1 "5V_USB" H 9550 4323 50  0000 C CNN
F 2 "" H 9550 4150 60  0000 C CNN
F 3 "" H 9550 4000 60  0000 C CNN
	1    9550 4150
	1    0    0    -1  
$EndComp
Wire Wire Line
	9550 4150 9550 4300
$Comp
L Power_Port:VDD #PWR06
U 1 1 5D8CD0E1
P 5450 3900
F 0 "#PWR06" H 5450 3750 50  0001 C CNN
F 1 "VDD" H 5450 4050 50  0000 C CNN
F 2 "" H 5450 3900 60  0000 C CNN
F 3 "" H 5450 3750 60  0000 C CNN
	1    5450 3900
	1    0    0    -1  
$EndComp
Wire Wire Line
	5150 3950 5450 3950
Wire Wire Line
	4750 3950 4400 3950
Wire Wire Line
	4400 3950 4400 3700
Connection ~ 4400 3700
Wire Wire Line
	4400 3700 4750 3700
$Comp
L Power_Port:GND #PWR02
U 1 1 5D8D5629
P 6100 3150
F 0 "#PWR02" H 6100 2980 50  0001 C CNN
F 1 "GND" H 6100 3050 50  0000 C CNN
F 2 "" H 6100 3250 60  0000 C CNN
F 3 "" H 6080 3060 60  0000 C CNN
	1    6100 3150
	1    0    0    -1  
$EndComp
Wire Wire Line
	5950 3000 6100 3000
Wire Wire Line
	6100 3000 6100 3050
Wire Wire Line
	5650 3000 5450 3000
Wire Wire Line
	6000 3450 5450 3450
Wire Wire Line
	5450 3450 5450 3000
$Comp
L Capacitors:C1608NP02A101J080AA C10
U 1 1 5D8DE70F
P 7900 4450
F 0 "C10" H 8100 4400 60  0000 C CNN
F 1 "C1608NP02A101J080AA" H 7900 4000 60  0001 C CNN
F 2 "Capacitors:C0603" H 7900 3400 60  0001 C CNN
F 3 "https://product.tdk.com/info/en/catalog/spec/mlccspec_commercial_hightemp_en.pdf" H 7900 3300 60  0001 C CNN
F 4 "Digikey" H 7900 3900 60  0001 C CNN "Supplier"
F 5 "445-14105-1-ND" H 7900 3800 60  0001 C CNN "Supplier Part Number"
F 6 "TDK Corporation" H 7900 3700 60  0001 C CNN "Manufacturer"
F 7 "C1608NP02A101J080AA" H 7900 3600 60  0001 C CNN "Manufacturer Part Number"
F 8 "CAP CER 100PF 100V NP0 0603" H 7900 3500 60  0001 C CNN "Description"
F 9 "100pF" H 7650 4400 50  0000 C CNN "Capacitance (Farad)"
F 10 "±5%" H 8350 4300 50  0001 C CNN "Tolerance (%)"
F 11 "100V" V 7998 4555 50  0001 L CNN "Voltage Rated (Volt)"
	1    7900 4450
	-1   0    0    1   
$EndComp
$Comp
L Capacitors:C1608NP02A101J080AA C11
U 1 1 5D8E44D8
P 8350 4550
F 0 "C11" H 8550 4500 60  0000 C CNN
F 1 "C1608NP02A101J080AA" H 8350 4100 60  0001 C CNN
F 2 "Capacitors:C0603" H 8350 3500 60  0001 C CNN
F 3 "https://product.tdk.com/info/en/catalog/spec/mlccspec_commercial_hightemp_en.pdf" H 8350 3400 60  0001 C CNN
F 4 "Digikey" H 8350 4000 60  0001 C CNN "Supplier"
F 5 "445-14105-1-ND" H 8350 3900 60  0001 C CNN "Supplier Part Number"
F 6 "TDK Corporation" H 8350 3800 60  0001 C CNN "Manufacturer"
F 7 "C1608NP02A101J080AA" H 8350 3700 60  0001 C CNN "Manufacturer Part Number"
F 8 "CAP CER 100PF 100V NP0 0603" H 8350 3600 60  0001 C CNN "Description"
F 9 "100pF" H 8100 4500 50  0000 C CNN "Capacitance (Farad)"
F 10 "±5%" H 8800 4400 50  0001 C CNN "Tolerance (%)"
F 11 "100V" V 8448 4655 50  0001 L CNN "Voltage Rated (Volt)"
	1    8350 4550
	-1   0    0    1   
$EndComp
Wire Wire Line
	8050 4450 8750 4450
Wire Wire Line
	8750 4450 8750 4550
Wire Wire Line
	7300 4450 7750 4450
Wire Wire Line
	7300 4550 8200 4550
Wire Wire Line
	8500 4550 8750 4550
Connection ~ 8750 4550
Wire Wire Line
	8750 4550 8750 4700
Wire Wire Line
	7300 4700 7750 4700
Wire Wire Line
	7300 4800 8200 4800
Wire Wire Line
	8050 4700 8750 4700
Connection ~ 8750 4700
Wire Wire Line
	8750 4700 8750 4800
Wire Wire Line
	8500 4800 8750 4800
$Comp
L Power_Port:GND #PWR013
U 1 1 5D8F948C
P 8750 4900
F 0 "#PWR013" H 8750 4730 50  0001 C CNN
F 1 "GND" H 8750 4800 50  0000 C CNN
F 2 "" H 8750 5000 60  0000 C CNN
F 3 "" H 8730 4810 60  0000 C CNN
	1    8750 4900
	1    0    0    -1  
$EndComp
Connection ~ 8750 4800
$Comp
L Resistors:RC0805JR-072K2L R5
U 1 1 5D900536
P 7850 4200
F 0 "R5" H 7550 4250 60  0000 C CNN
F 1 "RC0805JR-072K2L" H 7850 3900 50  0001 C CNN
F 2 "Resistors:R0805" H 7850 3300 30  0001 C CNN
F 3 "http://www.yageo.com/documents/recent/PYu-RC_Group_51_RoHS_L_7.pdf" H 7850 3250 30  0001 C CNN
F 4 "Digikey" H 7850 3800 60  0001 C CNN "Supplier"
F 5 "311-2.2KARCT-ND" H 7850 3700 60  0001 C CNN "Supplier Part Number"
F 6 "Yageo" H 7850 3600 60  0001 C CNN "Manufacturer"
F 7 "RC0805JR-072K2L" H 7850 3500 60  0001 C CNN "Manufacturer Part Number"
F 8 "RES SMD 2.2K OHM 5% 1/8W 0805" H 7850 3400 60  0001 C CNN "Description"
F 9 "2.2k" H 8100 4250 50  0000 C CNN "Resistance (Ohms)"
F 10 "±5%" H 8260 4120 50  0001 C CNN "Tolerance (%)"
F 11 "1/8W" H 7850 4060 50  0001 C CNN "Power (Watts)"
	1    7850 4200
	1    0    0    -1  
$EndComp
Wire Wire Line
	8600 4250 8750 4250
Wire Wire Line
	8750 4250 8750 4450
Connection ~ 8750 4450
Wire Wire Line
	7300 4050 7550 4050
Text Label 8750 4050 2    60   ~ 0
MIC
Wire Wire Line
	5900 5000 5900 5300
Wire Wire Line
	6000 5600 5900 5600
Connection ~ 5900 5600
Wire Wire Line
	5900 5600 5900 5800
$Comp
L Power_Port:GND #PWR021
U 1 1 5D93578E
P 11850 6000
F 0 "#PWR021" H 11850 5830 50  0001 C CNN
F 1 "GND" H 11850 5900 50  0000 C CNN
F 2 "" H 11850 6100 60  0000 C CNN
F 3 "" H 11830 5910 60  0000 C CNN
	1    11850 6000
	1    0    0    -1  
$EndComp
Wire Wire Line
	11750 5750 11850 5750
Wire Wire Line
	11850 5750 11850 5850
Wire Wire Line
	11750 5850 11850 5850
Connection ~ 11850 5850
Wire Wire Line
	11850 5850 11850 5900
$Comp
L Power_Port:GND #PWR020
U 1 1 5D946B0A
P 9900 6000
F 0 "#PWR020" H 9900 5830 50  0001 C CNN
F 1 "GND" H 9900 5900 50  0000 C CNN
F 2 "" H 9900 6100 60  0000 C CNN
F 3 "" H 9880 5910 60  0000 C CNN
	1    9900 6000
	1    0    0    -1  
$EndComp
$Comp
L Power_Port:GND #PWR012
U 1 1 5D967A47
P 10800 4450
F 0 "#PWR012" H 10800 4280 50  0001 C CNN
F 1 "GND" H 10800 4350 50  0000 C CNN
F 2 "" H 10800 4550 60  0000 C CNN
F 3 "" H 10780 4360 60  0000 C CNN
	1    10800 4450
	1    0    0    -1  
$EndComp
Wire Wire Line
	10650 4300 10800 4300
Wire Wire Line
	10800 4300 10800 4350
Wire Wire Line
	7300 3550 7850 3550
Wire Wire Line
	7300 3650 8350 3650
Wire Wire Line
	7300 3750 7850 3750
Wire Wire Line
	7300 3850 8350 3850
Wire Wire Line
	8150 3750 8900 3750
Wire Wire Line
	8650 3850 8900 3850
Wire Wire Line
	8900 3750 8900 3850
Wire Wire Line
	8650 3650 8900 3650
Wire Wire Line
	8900 3650 8900 3750
Connection ~ 8900 3750
Wire Wire Line
	8150 3550 8900 3550
Wire Wire Line
	8900 3550 8900 3650
Connection ~ 8900 3650
Wire Wire Line
	7400 3450 7900 3450
Connection ~ 7400 3450
Wire Wire Line
	8650 3450 8900 3450
Wire Wire Line
	8900 3450 8900 3550
Connection ~ 8900 3550
Wire Wire Line
	5450 3900 5450 3950
$Comp
L Power_Port:GND #PWR016
U 1 1 5D9A9831
P 7800 5450
F 0 "#PWR016" H 7800 5280 50  0001 C CNN
F 1 "GND" H 7800 5350 50  0000 C CNN
F 2 "" H 7800 5550 60  0000 C CNN
F 3 "" H 7780 5360 60  0000 C CNN
	1    7800 5450
	1    0    0    -1  
$EndComp
Wire Wire Line
	7300 5300 7800 5300
Wire Wire Line
	7800 5300 7800 5350
Wire Wire Line
	7300 5500 7600 5500
Wire Wire Line
	7300 5600 7600 5600
Text Label 7600 5500 2    60   ~ 0
~REC
Text Label 7600 5600 2    60   ~ 0
~PLAY
Wire Wire Line
	11750 5350 11950 5350
Wire Wire Line
	10650 5050 10500 5050
Wire Wire Line
	10650 5350 9600 5350
Wire Wire Line
	10650 4950 9600 4950
Wire Wire Line
	7300 5100 9150 5100
Wire Wire Line
	9150 5100 9150 4950
Wire Wire Line
	9150 4950 9300 4950
Wire Wire Line
	7300 5200 9150 5200
Wire Wire Line
	9150 5200 9150 5350
Wire Wire Line
	9150 5350 9300 5350
Wire Wire Line
	11750 5050 11950 5050
Wire Wire Line
	11750 5150 12550 5150
Wire Wire Line
	12250 5050 13100 5050
Wire Wire Line
	13100 5050 13100 5150
Wire Wire Line
	11750 5450 12450 5450
Wire Wire Line
	12450 5450 12450 5350
Wire Wire Line
	12450 5350 12250 5350
Wire Wire Line
	12850 5150 13100 5150
Connection ~ 13100 5150
Wire Wire Line
	13100 5150 13100 5250
$Comp
L Power_Port:GND #PWR015
U 1 1 5DA0FD16
P 13100 5350
F 0 "#PWR015" H 13100 5180 50  0001 C CNN
F 1 "GND" H 13100 5250 50  0000 C CNN
F 2 "" H 13100 5450 60  0000 C CNN
F 3 "" H 13080 5260 60  0000 C CNN
	1    13100 5350
	1    0    0    -1  
$EndComp
$Comp
L Power_Port:GND #PWR07
U 1 1 5DA199B8
P 8900 3950
F 0 "#PWR07" H 8900 3780 50  0001 C CNN
F 1 "GND" H 8900 3850 50  0000 C CNN
F 2 "" H 8900 4050 60  0000 C CNN
F 3 "" H 8880 3860 60  0000 C CNN
	1    8900 3950
	1    0    0    -1  
$EndComp
Connection ~ 8900 3850
Text Label 5550 4100 0    60   ~ 0
MAMP
Text Label 5550 4200 0    60   ~ 0
POWER
Text Label 5550 4300 0    60   ~ 0
MMUTE
Text Label 5550 4400 0    60   ~ 0
~SSPND
Wire Wire Line
	6000 4100 5550 4100
Wire Wire Line
	5550 4200 6000 4200
Wire Wire Line
	5550 4300 6000 4300
Wire Wire Line
	5550 4400 6000 4400
Wire Wire Line
	10500 5250 10650 5250
Wire Wire Line
	10650 5550 10300 5550
Wire Wire Line
	10650 5650 10300 5650
Wire Wire Line
	10300 5750 10650 5750
Text Label 10300 5550 0    60   ~ 0
G0
Text Label 10300 5650 0    60   ~ 0
G1
Text Label 10300 5750 0    60   ~ 0
EN
Text Notes 5900 2550 0    150  ~ 30
USB to Audio
Text Notes 10050 3850 0    150  ~ 30
Headphone amplifier
$Comp
L Connectors:61300311121 J6
U 1 1 5DA6414B
P 11400 7500
F 0 "J6" H 11508 7731 60  0000 C CNN
F 1 "61300311121" H 11400 7200 60  0001 C CNN
F 2 "Connectors:61300311121" H 11400 6600 60  0001 C CNN
F 3 "http://katalog.we-online.de/em/datasheet/6130xx11121.pdf" H 11400 6500 60  0001 C CNN
F 4 "Digikey" H 11400 7100 60  0001 C CNN "Supplier"
F 5 "732-5316-ND" H 11400 7000 60  0001 C CNN "Supplier Part Number"
F 6 "Wurth Electronics Inc." H 11400 6900 60  0001 C CNN "Manufacturer"
F 7 "61300311121" H 11400 6800 60  0001 C CNN "Manufacturer Part Number"
F 8 "CONN HEADER 3 POS 2.54" H 11400 6700 60  0001 C CNN "Description"
	1    11400 7500
	1    0    0    -1  
$EndComp
$Comp
L Connectors:61300311121 J5
U 1 1 5DA64914
P 10400 7500
F 0 "J5" H 10508 7731 60  0000 C CNN
F 1 "61300311121" H 10400 7200 60  0001 C CNN
F 2 "Connectors:61300311121" H 10400 6600 60  0001 C CNN
F 3 "http://katalog.we-online.de/em/datasheet/6130xx11121.pdf" H 10400 6500 60  0001 C CNN
F 4 "Digikey" H 10400 7100 60  0001 C CNN "Supplier"
F 5 "732-5316-ND" H 10400 7000 60  0001 C CNN "Supplier Part Number"
F 6 "Wurth Electronics Inc." H 10400 6900 60  0001 C CNN "Manufacturer"
F 7 "61300311121" H 10400 6800 60  0001 C CNN "Manufacturer Part Number"
F 8 "CONN HEADER 3 POS 2.54" H 10400 6700 60  0001 C CNN "Description"
	1    10400 7500
	1    0    0    -1  
$EndComp
Text Label 12000 7500 2    60   ~ 0
G0
Wire Wire Line
	11800 7500 12000 7500
Text Label 11000 7500 2    60   ~ 0
G1
Wire Wire Line
	11000 7500 10800 7500
Wire Wire Line
	10800 7600 11000 7600
Wire Wire Line
	11000 7600 11000 7700
Wire Wire Line
	10800 7400 11000 7400
Wire Wire Line
	11800 7400 12000 7400
Text Notes 10650 7000 0    100  ~ 20
Gain select
Text Notes 7500 3450 0    60   ~ 0
3V3
$Comp
L Power_Port:VDD #PWR024
U 1 1 5DA91173
P 9500 6950
F 0 "#PWR024" H 9500 6800 50  0001 C CNN
F 1 "VDD" H 9500 7123 50  0000 C CNN
F 2 "" H 9500 6950 60  0000 C CNN
F 3 "" H 9500 6800 60  0000 C CNN
	1    9500 6950
	1    0    0    -1  
$EndComp
Wire Wire Line
	9500 6950 9500 7050
Wire Wire Line
	9500 7050 9750 7050
Wire Wire Line
	9200 6950 9200 7200
Wire Wire Line
	9200 7200 9750 7200
$Comp
L Power_Port:5V_USB #PWR023
U 1 1 5DAB019B
P 9200 6950
F 0 "#PWR023" H 9200 6800 50  0001 C CNN
F 1 "5V_USB" H 9200 7123 50  0000 C CNN
F 2 "" H 9200 6950 60  0000 C CNN
F 3 "" H 9200 6800 60  0000 C CNN
	1    9200 6950
	1    0    0    -1  
$EndComp
Wire Wire Line
	10150 7200 10300 7200
Wire Wire Line
	11000 7200 11000 7400
Wire Wire Line
	10150 7050 10300 7050
Wire Wire Line
	10300 7050 10300 7200
Connection ~ 10300 7200
Wire Wire Line
	10300 7200 11000 7200
Wire Wire Line
	11000 7200 12000 7200
Wire Wire Line
	12000 7200 12000 7400
Connection ~ 11000 7200
$Comp
L Power_Port:GND #PWR029
U 1 1 5DAD813A
P 11000 7800
F 0 "#PWR029" H 11000 7630 50  0001 C CNN
F 1 "GND" H 11000 7700 50  0000 C CNN
F 2 "" H 11000 7900 60  0000 C CNN
F 3 "" H 10980 7710 60  0000 C CNN
	1    11000 7800
	1    0    0    -1  
$EndComp
Wire Wire Line
	11800 7600 12000 7600
Wire Wire Line
	12000 7600 12000 7700
$Comp
L Power_Port:GND #PWR030
U 1 1 5DAD867A
P 12000 7800
F 0 "#PWR030" H 12000 7630 50  0001 C CNN
F 1 "GND" H 12000 7700 50  0000 C CNN
F 2 "" H 12000 7900 60  0000 C CNN
F 3 "" H 11980 7710 60  0000 C CNN
	1    12000 7800
	1    0    0    -1  
$EndComp
Text Label 13200 7500 2    60   ~ 0
EN
Text Notes 12650 7000 0    100  ~ 20
Enable
$Comp
L Connectors:61300311121 J7
U 1 1 5DAF64FE
P 12600 7500
F 0 "J7" H 12708 7731 60  0000 C CNN
F 1 "61300311121" H 12600 7200 60  0001 C CNN
F 2 "Connectors:61300311121" H 12600 6600 60  0001 C CNN
F 3 "http://katalog.we-online.de/em/datasheet/6130xx11121.pdf" H 12600 6500 60  0001 C CNN
F 4 "Digikey" H 12600 7100 60  0001 C CNN "Supplier"
F 5 "732-5316-ND" H 12600 7000 60  0001 C CNN "Supplier Part Number"
F 6 "Wurth Electronics Inc." H 12600 6900 60  0001 C CNN "Manufacturer"
F 7 "61300311121" H 12600 6800 60  0001 C CNN "Manufacturer Part Number"
F 8 "CONN HEADER 3 POS 2.54" H 12600 6700 60  0001 C CNN "Description"
	1    12600 7500
	1    0    0    -1  
$EndComp
Wire Wire Line
	13000 7500 13200 7500
Wire Wire Line
	13000 7400 13200 7400
Wire Wire Line
	13200 7200 13200 7400
Wire Wire Line
	13000 7600 13200 7600
Wire Wire Line
	13200 7600 13200 7700
$Comp
L Power_Port:GND #PWR031
U 1 1 5DAF650E
P 13200 7800
F 0 "#PWR031" H 13200 7630 50  0001 C CNN
F 1 "GND" H 13200 7700 50  0000 C CNN
F 2 "" H 13200 7900 60  0000 C CNN
F 3 "" H 13180 7710 60  0000 C CNN
	1    13200 7800
	1    0    0    -1  
$EndComp
Wire Wire Line
	12000 7200 13200 7200
Connection ~ 12000 7200
Wire Notes Line style solid
	10700 8000 10700 8800
Wire Notes Line style solid
	10700 8800 11600 8800
Wire Notes Line style solid
	11600 8800 11600 8000
Wire Notes Line style solid
	11600 8000 10700 8000
Text Notes 10750 8150 0    60   ~ 12
G0
Text Notes 11000 8150 0    60   ~ 12
G1
Text Notes 11300 8150 0    60   ~ 12
GAIN
Text Notes 10800 8300 0    60   ~ 0
L
Text Notes 11050 8450 0    60   ~ 0
H
Text Notes 10800 8450 0    60   ~ 0
L
Text Notes 11050 8300 0    60   ~ 0
L
Text Notes 10800 8600 0    60   ~ 0
H
Text Notes 11050 8750 0    60   ~ 0
H
Text Notes 11050 8600 0    60   ~ 0
L
Text Notes 10800 8750 0    60   ~ 0
H
Text Notes 11250 8300 0    60   ~ 0
-6 dB
Text Notes 11300 8450 0    60   ~ 0
0 dB
Text Notes 11300 8600 0    60   ~ 0
3 dB
Text Notes 11300 8750 0    60   ~ 0
6 dB
Wire Notes Line style solid
	10700 8200 11600 8200
Wire Notes Line style solid
	10950 8000 10950 8800
Wire Notes Line style solid
	11200 8000 11200 8800
Text Label 2350 8550 0    60   ~ 0
~REC
Text Label 700  8550 0    60   ~ 0
~PLAY
Wire Wire Line
	700  8550 1250 8550
Wire Wire Line
	1250 8550 1250 8500
Wire Wire Line
	1250 8100 1250 8200
$Comp
L Power_Port:5V_USB #PWR025
U 1 1 5DBFBDA4
P 1250 7600
F 0 "#PWR025" H 1250 7450 50  0001 C CNN
F 1 "5V_USB" H 1250 7773 50  0000 C CNN
F 2 "" H 1250 7600 60  0000 C CNN
F 3 "" H 1250 7450 60  0000 C CNN
	1    1250 7600
	1    0    0    -1  
$EndComp
Wire Wire Line
	1250 7600 1250 7700
$Comp
L Diodes:150080BS75000 D2
U 1 1 5DC0489D
P 1250 8400
F 0 "D2" V 1147 8483 60  0000 L CNN
F 1 "150080BS75000" H 1250 8100 60  0001 C CNN
F 2 "Diodes:LED0805-BLUE" H 1260 7320 60  0001 C CNN
F 3 "https://katalog.we-online.de/led/datasheet/150080BS75000.pdf" H 1260 7220 60  0001 C CNN
F 4 "Digikey" H 1260 7820 60  0001 C CNN "Supplier"
F 5 "732-4982-1-ND" H 1260 7720 60  0001 C CNN "Supplier Part Number"
F 6 "Wurth Electronics Inc." H 1260 7620 60  0001 C CNN "Manufacturer"
F 7 "150080BS75000" H 1260 7520 60  0001 C CNN "Manufacturer Part Number"
F 8 "LED BLUE CLEAR 0805 SMD" H 1260 7420 60  0001 C CNN "Description"
F 9 "Blue" V 1253 8483 60  0000 L CNN "Color"
F 10 "3.2V" H 1250 7150 60  0001 C CNN "Voltage - Forward (Vf) (Typ)"
	1    1250 8400
	0    1    1    0   
$EndComp
Wire Wire Line
	2350 8550 2900 8550
Wire Wire Line
	2900 8550 2900 8500
Wire Wire Line
	2900 8100 2900 8200
$Comp
L Power_Port:5V_USB #PWR026
U 1 1 5DC05030
P 2900 7600
F 0 "#PWR026" H 2900 7450 50  0001 C CNN
F 1 "5V_USB" H 2900 7773 50  0000 C CNN
F 2 "" H 2900 7600 60  0000 C CNN
F 3 "" H 2900 7450 60  0000 C CNN
	1    2900 7600
	1    0    0    -1  
$EndComp
Wire Wire Line
	2900 7600 2900 7700
$Comp
L Diodes:150080BS75000 D3
U 1 1 5DC05042
P 2900 8400
F 0 "D3" V 2797 8483 60  0000 L CNN
F 1 "150080BS75000" H 2900 8100 60  0001 C CNN
F 2 "Diodes:LED0805-BLUE" H 2910 7320 60  0001 C CNN
F 3 "https://katalog.we-online.de/led/datasheet/150080BS75000.pdf" H 2910 7220 60  0001 C CNN
F 4 "Digikey" H 2910 7820 60  0001 C CNN "Supplier"
F 5 "732-4982-1-ND" H 2910 7720 60  0001 C CNN "Supplier Part Number"
F 6 "Wurth Electronics Inc." H 2910 7620 60  0001 C CNN "Manufacturer"
F 7 "150080BS75000" H 2910 7520 60  0001 C CNN "Manufacturer Part Number"
F 8 "LED BLUE CLEAR 0805 SMD" H 2910 7420 60  0001 C CNN "Description"
F 9 "Blue" V 2903 8483 60  0000 L CNN "Color"
F 10 "3.2V" H 2900 7150 60  0001 C CNN "Voltage - Forward (Vf) (Typ)"
	1    2900 8400
	0    1    1    0   
$EndComp
Text Notes 1900 7200 0    100  ~ 20
LED
Text Label 4800 7800 2    60   ~ 0
MAMP
Text Label 6800 7800 2    60   ~ 0
POWER
Text Label 4800 9150 2    60   ~ 0
MMUTE
Text Label 6800 9150 2    60   ~ 0
~SSPND
Text Notes 4700 7300 0    100  ~ 20
PCM2912A CTRL
$Comp
L Connectors:61300311121 J8
U 1 1 5DC33AD1
P 4100 7800
F 0 "J8" H 4208 8031 60  0000 C CNN
F 1 "61300311121" H 4100 7500 60  0001 C CNN
F 2 "Connectors:61300311121" H 4100 6900 60  0001 C CNN
F 3 "http://katalog.we-online.de/em/datasheet/6130xx11121.pdf" H 4100 6800 60  0001 C CNN
F 4 "Digikey" H 4100 7400 60  0001 C CNN "Supplier"
F 5 "732-5316-ND" H 4100 7300 60  0001 C CNN "Supplier Part Number"
F 6 "Wurth Electronics Inc." H 4100 7200 60  0001 C CNN "Manufacturer"
F 7 "61300311121" H 4100 7100 60  0001 C CNN "Manufacturer Part Number"
F 8 "CONN HEADER 3 POS 2.54" H 4100 7000 60  0001 C CNN "Description"
	1    4100 7800
	1    0    0    -1  
$EndComp
$Comp
L Power_Port:VDD #PWR027
U 1 1 5DC34B59
P 4800 7650
F 0 "#PWR027" H 4800 7500 50  0001 C CNN
F 1 "VDD" H 4800 7823 50  0000 C CNN
F 2 "" H 4800 7650 60  0000 C CNN
F 3 "" H 4800 7500 60  0000 C CNN
	1    4800 7650
	1    0    0    -1  
$EndComp
Wire Wire Line
	4500 7700 4800 7700
Wire Wire Line
	4800 7700 4800 7650
$Comp
L Power_Port:GND #PWR032
U 1 1 5DC3DD71
P 4800 8050
F 0 "#PWR032" H 4800 7880 50  0001 C CNN
F 1 "GND" H 4800 7950 50  0000 C CNN
F 2 "" H 4800 8150 60  0000 C CNN
F 3 "" H 4780 7960 60  0000 C CNN
	1    4800 8050
	1    0    0    -1  
$EndComp
Wire Wire Line
	4500 7800 4800 7800
Wire Wire Line
	4500 7900 4800 7900
Wire Wire Line
	4800 7900 4800 7950
Text Notes 3900 8600 0    60   ~ 0
Microphone preamplifier gain control\nLOW: Preamplifier off\nHIGH: Preamplifier on = +20 dB
$Comp
L Connectors:61300311121 J9
U 1 1 5DC75757
P 6100 7800
F 0 "J9" H 6208 8031 60  0000 C CNN
F 1 "61300311121" H 6100 7500 60  0001 C CNN
F 2 "Connectors:61300311121" H 6100 6900 60  0001 C CNN
F 3 "http://katalog.we-online.de/em/datasheet/6130xx11121.pdf" H 6100 6800 60  0001 C CNN
F 4 "Digikey" H 6100 7400 60  0001 C CNN "Supplier"
F 5 "732-5316-ND" H 6100 7300 60  0001 C CNN "Supplier Part Number"
F 6 "Wurth Electronics Inc." H 6100 7200 60  0001 C CNN "Manufacturer"
F 7 "61300311121" H 6100 7100 60  0001 C CNN "Manufacturer Part Number"
F 8 "CONN HEADER 3 POS 2.54" H 6100 7000 60  0001 C CNN "Description"
	1    6100 7800
	1    0    0    -1  
$EndComp
$Comp
L Power_Port:VDD #PWR028
U 1 1 5DC75761
P 6800 7650
F 0 "#PWR028" H 6800 7500 50  0001 C CNN
F 1 "VDD" H 6800 7823 50  0000 C CNN
F 2 "" H 6800 7650 60  0000 C CNN
F 3 "" H 6800 7500 60  0000 C CNN
	1    6800 7650
	1    0    0    -1  
$EndComp
Wire Wire Line
	6500 7700 6800 7700
Wire Wire Line
	6800 7700 6800 7650
$Comp
L Power_Port:GND #PWR033
U 1 1 5DC7576D
P 6800 8050
F 0 "#PWR033" H 6800 7880 50  0001 C CNN
F 1 "GND" H 6800 7950 50  0000 C CNN
F 2 "" H 6800 8150 60  0000 C CNN
F 3 "" H 6780 7960 60  0000 C CNN
	1    6800 8050
	1    0    0    -1  
$EndComp
Wire Wire Line
	6500 7800 6800 7800
Wire Wire Line
	6500 7900 6800 7900
Wire Wire Line
	6800 7900 6800 7950
Text Notes 5900 8600 0    60   ~ 0
Power consumption declaration\nLOW: 100 mA\nHIGH: 500 mA
$Comp
L Connectors:61300311121 J10
U 1 1 5DC9456F
P 4100 9150
F 0 "J10" H 4208 9381 60  0000 C CNN
F 1 "61300311121" H 4100 8850 60  0001 C CNN
F 2 "Connectors:61300311121" H 4100 8250 60  0001 C CNN
F 3 "http://katalog.we-online.de/em/datasheet/6130xx11121.pdf" H 4100 8150 60  0001 C CNN
F 4 "Digikey" H 4100 8750 60  0001 C CNN "Supplier"
F 5 "732-5316-ND" H 4100 8650 60  0001 C CNN "Supplier Part Number"
F 6 "Wurth Electronics Inc." H 4100 8550 60  0001 C CNN "Manufacturer"
F 7 "61300311121" H 4100 8450 60  0001 C CNN "Manufacturer Part Number"
F 8 "CONN HEADER 3 POS 2.54" H 4100 8350 60  0001 C CNN "Description"
	1    4100 9150
	1    0    0    -1  
$EndComp
$Comp
L Power_Port:VDD #PWR036
U 1 1 5DC94579
P 4800 9000
F 0 "#PWR036" H 4800 8850 50  0001 C CNN
F 1 "VDD" H 4800 9173 50  0000 C CNN
F 2 "" H 4800 9000 60  0000 C CNN
F 3 "" H 4800 8850 60  0000 C CNN
	1    4800 9000
	1    0    0    -1  
$EndComp
Wire Wire Line
	4500 9050 4800 9050
Wire Wire Line
	4800 9050 4800 9000
$Comp
L Power_Port:GND #PWR040
U 1 1 5DC94585
P 4800 9400
F 0 "#PWR040" H 4800 9230 50  0001 C CNN
F 1 "GND" H 4800 9300 50  0000 C CNN
F 2 "" H 4800 9500 60  0000 C CNN
F 3 "" H 4780 9310 60  0000 C CNN
	1    4800 9400
	1    0    0    -1  
$EndComp
Wire Wire Line
	4500 9150 4800 9150
Wire Wire Line
	4500 9250 4800 9250
Wire Wire Line
	4800 9250 4800 9300
$Comp
L Connectors:61300311121 J11
U 1 1 5DC9F89C
P 6100 9150
F 0 "J11" H 6208 9381 60  0000 C CNN
F 1 "61300311121" H 6100 8850 60  0001 C CNN
F 2 "Connectors:61300311121" H 6100 8250 60  0001 C CNN
F 3 "http://katalog.we-online.de/em/datasheet/6130xx11121.pdf" H 6100 8150 60  0001 C CNN
F 4 "Digikey" H 6100 8750 60  0001 C CNN "Supplier"
F 5 "732-5316-ND" H 6100 8650 60  0001 C CNN "Supplier Part Number"
F 6 "Wurth Electronics Inc." H 6100 8550 60  0001 C CNN "Manufacturer"
F 7 "61300311121" H 6100 8450 60  0001 C CNN "Manufacturer Part Number"
F 8 "CONN HEADER 3 POS 2.54" H 6100 8350 60  0001 C CNN "Description"
	1    6100 9150
	1    0    0    -1  
$EndComp
$Comp
L Power_Port:VDD #PWR037
U 1 1 5DC9F8A6
P 6800 9000
F 0 "#PWR037" H 6800 8850 50  0001 C CNN
F 1 "VDD" H 6800 9173 50  0000 C CNN
F 2 "" H 6800 9000 60  0000 C CNN
F 3 "" H 6800 8850 60  0000 C CNN
	1    6800 9000
	1    0    0    -1  
$EndComp
Wire Wire Line
	6500 9050 6800 9050
Wire Wire Line
	6800 9050 6800 9000
$Comp
L Power_Port:GND #PWR041
U 1 1 5DC9F8B2
P 6800 9400
F 0 "#PWR041" H 6800 9230 50  0001 C CNN
F 1 "GND" H 6800 9300 50  0000 C CNN
F 2 "" H 6800 9500 60  0000 C CNN
F 3 "" H 6780 9310 60  0000 C CNN
	1    6800 9400
	1    0    0    -1  
$EndComp
Wire Wire Line
	6500 9150 6800 9150
Wire Wire Line
	6500 9250 6800 9250
Wire Wire Line
	6800 9250 6800 9300
Text Notes 3850 9950 0    60   ~ 0
Microphone mute control\nLOW: Mute off\nHIGH: Mute on
Text Notes 5900 9950 0    60   ~ 0
Suspend flag\nLOW: Suspend\nHIGH: Operational state
Text Notes 700  9100 0    60   ~ 0
Status output for playback\nLOW: Playback\nFLASH: Mute on playback\nHIGH: Stop
Text Notes 2350 9100 0    60   ~ 0
Status output for record\nLOW: Record\nFLASH: Mute on recode\nHIGH: Stop
$Comp
L Connectors:SJ-43515RS-SMT-TR J3
U 1 1 5DCF0BFE
P 15350 4800
F 0 "J3" H 14972 4895 60  0000 R CNN
F 1 "SJ-43515RS-SMT-TR" H 15350 4500 60  0001 C CNN
F 2 "Connectors:SJ-43515RS-SMT" H 15350 3900 60  0001 C CNN
F 3 "https://www.cui.com/product/resource/sj-4351x-smt-series.pdf" H 15350 3800 60  0001 C CNN
F 4 "Digikey" H 15350 4400 60  0001 C CNN "Supplier"
F 5 "CP-43515RSSJTR-ND" H 15350 4300 60  0001 C CNN "Supplier Part Number"
F 6 "CUI Inc." H 15350 4200 60  0001 C CNN "Manufacturer"
F 7 "SJ-43515RS-SMT-TR" H 15350 4100 60  0001 C CNN "Manufacturer Part Number"
F 8 "CONN JACK 4COND 3.5MM SMD R/A" H 15350 4000 60  0001 C CNN "Description"
F 9 "Black" H 14972 4797 50  0000 R CNN "Color"
	1    15350 4800
	-1   0    0    -1  
$EndComp
Text Notes 14600 2500 0    150  ~ 30
Connectors
$Comp
L Connectors:SJ-3524-SMT-TR-PI J4
U 1 1 5DD28698
P 15350 6050
F 0 "J4" H 14972 6145 60  0000 R CNN
F 1 "SJ-3524-SMT-TR-PI" H 15350 5750 60  0001 C CNN
F 2 "Connectors:SJ-3524-SMT-PINK" H 15350 5150 60  0001 C CNN
F 3 "https://www.cui.com/product/resource/sj-352x-smt-series.pdf" H 15350 5050 60  0001 C CNN
F 4 "Digikey" H 15350 5650 60  0001 C CNN "Supplier"
F 5 "CP-3524SJPICT-ND" H 15350 5550 60  0001 C CNN "Supplier Part Number"
F 6 "CUI Inc." H 15350 5450 60  0001 C CNN "Manufacturer"
F 7 "SJ-3524-SMT-TR-PI" H 15350 5350 60  0001 C CNN "Manufacturer Part Number"
F 8 "CONN JACK STEREO 3.5MM SMD R/A" H 15350 5250 60  0001 C CNN "Description"
F 9 "Pink" H 14972 6047 50  0000 R CNN "Color"
	1    15350 6050
	-1   0    0    -1  
$EndComp
Text Notes 15100 2850 0    100  ~ 20
1/4 Jack
Text Notes 15050 4450 0    100  ~ 20
Headset
Text Notes 14900 5750 0    100  ~ 20
Microphone
Wire Wire Line
	14800 5100 14800 5050
Wire Wire Line
	14800 4650 15000 4650
NoConn ~ 15000 4850
Wire Wire Line
	15000 6150 14600 6150
Text Label 13600 4400 0    60   ~ 0
MIC
Text Label 14600 6150 0    60   ~ 0
MIC
NoConn ~ 15000 5950
Wire Wire Line
	15000 5850 14800 5850
Wire Wire Line
	14800 5850 14800 6300
$Comp
L Power_Port:GND #PWR022
U 1 1 5DD6BDE0
P 14800 6400
F 0 "#PWR022" H 14800 6230 50  0001 C CNN
F 1 "GND" H 14800 6300 50  0000 C CNN
F 2 "" H 14800 6500 60  0000 C CNN
F 3 "" H 14780 6310 60  0000 C CNN
	1    14800 6400
	1    0    0    -1  
$EndComp
Wire Wire Line
	11750 4850 14150 4850
Wire Wire Line
	14150 4850 14150 4950
Wire Wire Line
	14150 4950 15000 4950
Wire Wire Line
	11750 4750 15000 4750
Text Label 12200 4850 0    60   ~ 0
HP_L
Text Label 12200 4750 0    60   ~ 0
HP_R
Text Label 14700 3300 0    60   ~ 0
HP_R
Text Label 14700 3600 0    60   ~ 0
HP_L
Wire Wire Line
	14700 3600 15050 3600
$Comp
L Power_Port:Chassis #PWR011
U 1 1 5DDE2987
P 700 4450
F 0 "#PWR011" H 690 4340 50  0001 C CNN
F 1 "Chassis" H 700 4610 50  0001 C CNN
F 2 "" H 700 4550 60  0000 C CNN
F 3 "" H 680 4360 60  0000 C CNN
	1    700  4450
	1    0    0    -1  
$EndComp
Wire Wire Line
	800  3900 700  3900
Wire Wire Line
	700  3900 700  4100
NoConn ~ 800  3800
NoConn ~ 800  3700
NoConn ~ 800  3600
$Comp
L Filters:CIS10P121AC FB1
U 1 1 5DE13EAE
P 3000 3500
F 0 "FB1" H 3000 3600 60  0000 C CNN
F 1 "CIS10P121AC" H 3000 3250 60  0001 C CNN
F 2 "Filters:FB0603" H 3000 2650 60  0001 C CNN
F 3 "http://www.samsungsem.com/kr/support/product-search/bead/__icsFiles/afieldfile/2016/05/30/CIS10P121AC.pdf" H 3000 2550 60  0001 C CNN
F 4 "Digikey" H 3000 3150 60  0001 C CNN "Supplier"
F 5 "1276-6351-1-ND" H 3000 3050 60  0001 C CNN "Supplier Part Number"
F 6 "Samsung Electro-Mechanics" H 3000 2950 60  0001 C CNN "Manufacturer"
F 7 "CIS10P121AC" H 3000 2850 60  0001 C CNN "Manufacturer Part Number"
F 8 "FERRITE BEAD 120 OHM 0603 1LN" H 3000 2750 60  0001 C CNN "Description"
F 9 "120R @ 100MHz" H 3000 3400 50  0001 C CNN "Impedance @ Freq"
F 10 "3A" H 3000 3300 50  0001 C CNN "Current Rating (Ampere)"
	1    3000 3500
	1    0    0    -1  
$EndComp
Wire Wire Line
	2500 3500 2800 3500
Wire Wire Line
	3200 3500 3250 3500
Connection ~ 3250 3500
Wire Wire Line
	1150 4250 700  4250
Connection ~ 700  4250
Wire Wire Line
	700  4250 700  4350
Wire Wire Line
	1550 4250 2000 4250
Connection ~ 2000 4250
Wire Wire Line
	2000 4250 2000 4300
$Comp
L Resistors:RC1206JR-070RL R10
U 1 1 5DE805EF
P 9950 7050
F 0 "R10" H 9700 7100 60  0000 C CNN
F 1 "RC1206JR-070RL" H 9950 6750 50  0001 C CNN
F 2 "Resistors:R1206" H 9950 6150 30  0001 C CNN
F 3 "" H 9950 6100 30  0001 C CNN
F 4 "Digikey" H 9950 6650 60  0001 C CNN "Supplier"
F 5 "311-0.0ERCT-ND" H 9950 6550 60  0001 C CNN "Supplier Part Number"
F 6 "Yageo" H 9950 6450 60  0001 C CNN "Manufacturer"
F 7 "RC1206JR-070RL" H 9950 6350 60  0001 C CNN "Manufacturer Part Number"
F 8 "RES SMD 0 OHM JUMPER 1/4W 1206" H 9950 6250 60  0001 C CNN "Description"
F 9 "0" H 10150 7100 50  0000 C CNN "Resistance (Ohms)"
F 10 "0" H 10360 6970 50  0001 C CNN "Tolerance (%)"
F 11 "1/4W" H 9950 6910 50  0001 C CNN "Power (Watts)"
	1    9950 7050
	1    0    0    -1  
$EndComp
$Comp
L Resistors:RC1206JR-070RL R11
U 1 1 5DE810AC
P 9950 7200
F 0 "R11" H 9700 7250 60  0000 C CNN
F 1 "RC1206JR-070RL" H 9950 6900 50  0001 C CNN
F 2 "Resistors:R1206" H 9950 6300 30  0001 C CNN
F 3 "" H 9950 6250 30  0001 C CNN
F 4 "Digikey" H 9950 6800 60  0001 C CNN "Supplier"
F 5 "311-0.0ERCT-ND" H 9950 6700 60  0001 C CNN "Supplier Part Number"
F 6 "Yageo" H 9950 6600 60  0001 C CNN "Manufacturer"
F 7 "RC1206JR-070RL" H 9950 6500 60  0001 C CNN "Manufacturer Part Number"
F 8 "RES SMD 0 OHM JUMPER 1/4W 1206" H 9950 6400 60  0001 C CNN "Description"
F 9 "0" H 10150 7250 50  0000 C CNN "Resistance (Ohms)"
F 10 "0" H 10360 7120 50  0001 C CNN "Tolerance (%)"
F 11 "1/4W" H 9950 7060 50  0001 C CNN "Power (Watts)"
	1    9950 7200
	1    0    0    -1  
$EndComp
$Comp
L Resistors:RC1206JR-070RL R4
U 1 1 5DE81416
P 1350 4250
F 0 "R4" H 1100 4300 60  0000 C CNN
F 1 "RC1206JR-070RL" H 1350 3950 50  0001 C CNN
F 2 "Resistors:R1206" H 1350 3350 30  0001 C CNN
F 3 "" H 1350 3300 30  0001 C CNN
F 4 "Digikey" H 1350 3850 60  0001 C CNN "Supplier"
F 5 "311-0.0ERCT-ND" H 1350 3750 60  0001 C CNN "Supplier Part Number"
F 6 "Yageo" H 1350 3650 60  0001 C CNN "Manufacturer"
F 7 "RC1206JR-070RL" H 1350 3550 60  0001 C CNN "Manufacturer Part Number"
F 8 "RES SMD 0 OHM JUMPER 1/4W 1206" H 1350 3450 60  0001 C CNN "Description"
F 9 "0" H 1550 4300 50  0000 C CNN "Resistance (Ohms)"
F 10 "0" H 1760 4170 50  0001 C CNN "Tolerance (%)"
F 11 "1/4W" H 1350 4110 50  0001 C CNN "Power (Watts)"
	1    1350 4250
	1    0    0    -1  
$EndComp
$Comp
L Fuses:1206L025YR F1
U 1 1 5DE96F59
P 2300 3500
F 0 "F1" H 2000 3550 60  0000 C CNN
F 1 "1206L025YR" H 2300 3200 50  0001 C CNN
F 2 "Fuses:1206L025" H 2300 2600 30  0001 C CNN
F 3 "http://www.littelfuse.com/~/media/electronics/datasheets/resettable_ptcs/littelfuse_ptc_1206l_datasheet.pdf.pdf" H 2300 2550 30  0001 C CNN
F 4 "Digikey" H 2300 3100 60  0001 C CNN "Supplier"
F 5 "F2110CT-ND" H 2300 3000 60  0001 C CNN "Supplier Part Number"
F 6 "Littelfuse Inc." H 2300 2900 60  0001 C CNN "Manufacturer"
F 7 "F2110CT-ND" H 2300 2800 60  0001 C CNN "Manufacturer Part Number"
F 8 "PTC RESET FUSE 16V 250MA 1206" H 2300 2700 50  0001 C CNN "Description"
F 9 "500mA" H 2300 3350 50  0001 C CNN "Current - Trip"
F 10 "250mA" H 2600 3550 60  0000 C CNN "Current - Hold"
	1    2300 3500
	1    0    0    -1  
$EndComp
Wire Wire Line
	11750 5650 12800 5650
$Comp
L Power_Port:SGND #PWR05
U 1 1 5DEA5EA5
P 14450 3450
F 0 "#PWR05" H 14450 3280 50  0001 C CNN
F 1 "SGND" H 14450 3350 50  0000 C CNN
F 2 "" H 14450 3550 60  0000 C CNN
F 3 "" H 14430 3360 60  0000 C CNN
	1    14450 3450
	1    0    0    -1  
$EndComp
Wire Wire Line
	14450 3100 14450 3350
$Comp
L Power_Port:SGND #PWR014
U 1 1 5DEB33E8
P 14800 5200
F 0 "#PWR014" H 14800 5030 50  0001 C CNN
F 1 "SGND" H 14800 5100 50  0000 C CNN
F 2 "" H 14800 5300 60  0000 C CNN
F 3 "" H 14780 5110 60  0000 C CNN
	1    14800 5200
	1    0    0    -1  
$EndComp
Wire Wire Line
	14650 5650 14650 5050
Wire Wire Line
	14650 5050 14800 5050
Connection ~ 14800 5050
Wire Wire Line
	14800 5050 14800 4650
$Comp
L Resistors:RC1206JR-070RL R9
U 1 1 5DEC1D03
P 12350 5750
F 0 "R9" H 12100 5800 60  0000 C CNN
F 1 "RC1206JR-070RL" H 12350 5450 50  0001 C CNN
F 2 "Resistors:R1206" H 12350 4850 30  0001 C CNN
F 3 "" H 12350 4800 30  0001 C CNN
F 4 "Digikey" H 12350 5350 60  0001 C CNN "Supplier"
F 5 "311-0.0ERCT-ND" H 12350 5250 60  0001 C CNN "Supplier Part Number"
F 6 "Yageo" H 12350 5150 60  0001 C CNN "Manufacturer"
F 7 "RC1206JR-070RL" H 12350 5050 60  0001 C CNN "Manufacturer Part Number"
F 8 "RES SMD 0 OHM JUMPER 1/4W 1206" H 12350 4950 60  0001 C CNN "Description"
F 9 "5R" H 12550 5800 50  0000 C CNN "Resistance (Ohms)"
F 10 "0" H 12760 5670 50  0001 C CNN "Tolerance (%)"
F 11 "1/4W" H 12350 5610 50  0001 C CNN "Power (Watts)"
	1    12350 5750
	1    0    0    -1  
$EndComp
Wire Wire Line
	12150 5750 11850 5750
Connection ~ 11850 5750
Wire Wire Line
	12550 5750 12800 5750
Wire Wire Line
	12800 5750 12800 5650
Connection ~ 12800 5650
Wire Wire Line
	12800 5650 14650 5650
$Comp
L Resistors:RC1206JR-070RL R6
U 1 1 5DEDCEDC
P 10300 5050
F 0 "R6" H 10050 5100 60  0000 C CNN
F 1 "RC1206JR-070RL" H 10300 4750 50  0001 C CNN
F 2 "Resistors:R1206" H 10300 4150 30  0001 C CNN
F 3 "" H 10300 4100 30  0001 C CNN
F 4 "Digikey" H 10300 4650 60  0001 C CNN "Supplier"
F 5 "311-0.0ERCT-ND" H 10300 4550 60  0001 C CNN "Supplier Part Number"
F 6 "Yageo" H 10300 4450 60  0001 C CNN "Manufacturer"
F 7 "RC1206JR-070RL" H 10300 4350 60  0001 C CNN "Manufacturer Part Number"
F 8 "RES SMD 0 OHM JUMPER 1/4W 1206" H 10300 4250 60  0001 C CNN "Description"
F 9 "0" H 10500 5100 50  0000 C CNN "Resistance (Ohms)"
F 10 "0" H 10710 4970 50  0001 C CNN "Tolerance (%)"
F 11 "1/4W" H 10300 4910 50  0001 C CNN "Power (Watts)"
	1    10300 5050
	1    0    0    -1  
$EndComp
Wire Wire Line
	9900 5050 9900 5250
$Comp
L Resistors:RC1206JR-070RL R7
U 1 1 5DEDE2C3
P 10300 5250
F 0 "R7" H 10050 5300 60  0000 C CNN
F 1 "RC1206JR-070RL" H 10300 4950 50  0001 C CNN
F 2 "Resistors:R1206" H 10300 4350 30  0001 C CNN
F 3 "" H 10300 4300 30  0001 C CNN
F 4 "Digikey" H 10300 4850 60  0001 C CNN "Supplier"
F 5 "311-0.0ERCT-ND" H 10300 4750 60  0001 C CNN "Supplier Part Number"
F 6 "Yageo" H 10300 4650 60  0001 C CNN "Manufacturer"
F 7 "RC1206JR-070RL" H 10300 4550 60  0001 C CNN "Manufacturer Part Number"
F 8 "RES SMD 0 OHM JUMPER 1/4W 1206" H 10300 4450 60  0001 C CNN "Description"
F 9 "0" H 10500 5300 50  0000 C CNN "Resistance (Ohms)"
F 10 "0" H 10710 5170 50  0001 C CNN "Tolerance (%)"
F 11 "1/4W" H 10300 5110 50  0001 C CNN "Power (Watts)"
	1    10300 5250
	1    0    0    -1  
$EndComp
Wire Wire Line
	9900 5050 10100 5050
Wire Wire Line
	10100 5250 9900 5250
Connection ~ 9900 5250
Wire Wire Line
	9900 5250 9900 5900
$Comp
L Inductors:LQM31PN4R7M00L L2
U 1 1 5DF64839
P 9850 4300
F 0 "L2" H 9850 4450 60  0000 C CNN
F 1 "LQM31PN4R7M00L" H 9850 4000 60  0001 C CNN
F 2 "Inductors:I1206" H 9850 3400 60  0001 C CNN
F 3 "https://search.murata.co.jp/Ceramy/image/img/P02/JELF243B-0013.pdf" H 9850 3300 60  0001 C CNN
F 4 "Digikey" H 9850 3900 60  0001 C CNN "Supplier"
F 5 "490-6706-1-ND" H 9850 3800 60  0001 C CNN "Supplier Part Number"
F 6 "Murata Electronics" H 9850 3700 60  0001 C CNN "Manufacturer"
F 7 "LQM31PN4R7M00L" H 9850 3600 60  0001 C CNN "Manufacturer Part Number"
F 8 "FIXED IND 4.7UH 700MA 300 MOHM" H 9850 3500 60  0001 C CNN "Description"
F 9 "4.7µH" H 9850 4250 50  0000 C CNN "Inductance (Henry)"
F 10 "700mA" H 9850 4454 50  0001 C CNN "Current Rating (Ampere)"
	1    9850 4300
	1    0    0    -1  
$EndComp
Wire Wire Line
	9550 4300 9600 4300
Wire Wire Line
	10100 4300 10150 4300
Wire Wire Line
	10650 4750 10150 4750
Wire Wire Line
	10150 4750 10150 4300
Connection ~ 10150 4300
Wire Wire Line
	10150 4300 10350 4300
$Comp
L Inductors:LQM31PN4R7M00L L1
U 1 1 5DFB8FE7
P 5150 3000
F 0 "L1" H 5150 3150 60  0000 C CNN
F 1 "LQM31PN4R7M00L" H 5150 2700 60  0001 C CNN
F 2 "Inductors:I1206" H 5150 2100 60  0001 C CNN
F 3 "https://search.murata.co.jp/Ceramy/image/img/P02/JELF243B-0013.pdf" H 5150 2000 60  0001 C CNN
F 4 "Digikey" H 5150 2600 60  0001 C CNN "Supplier"
F 5 "490-6706-1-ND" H 5150 2500 60  0001 C CNN "Supplier Part Number"
F 6 "Murata Electronics" H 5150 2400 60  0001 C CNN "Manufacturer"
F 7 "LQM31PN4R7M00L" H 5150 2300 60  0001 C CNN "Manufacturer Part Number"
F 8 "FIXED IND 4.7UH 700MA 300 MOHM" H 5150 2200 60  0001 C CNN "Description"
F 9 "4.7µH" H 5150 2950 50  0000 C CNN "Inductance (Henry)"
F 10 "700mA" H 5150 3154 50  0001 C CNN "Current Rating (Ampere)"
	1    5150 3000
	1    0    0    -1  
$EndComp
Wire Wire Line
	5400 3000 5450 3000
Connection ~ 5450 3000
Wire Wire Line
	4850 3000 4900 3000
$Comp
L Power_Port:GND #PWR034
U 1 1 5DFF4920
P 15050 8150
F 0 "#PWR034" H 15050 7980 50  0001 C CNN
F 1 "GND" H 15050 8050 50  0000 C CNN
F 2 "" H 15050 8250 60  0000 C CNN
F 3 "" H 15030 8060 60  0000 C CNN
	1    15050 8150
	1    0    0    -1  
$EndComp
$Comp
L Power_Port:GND #PWR035
U 1 1 5DFF4C2A
P 16200 8150
F 0 "#PWR035" H 16200 7980 50  0001 C CNN
F 1 "GND" H 16200 8050 50  0000 C CNN
F 2 "" H 16200 8250 60  0000 C CNN
F 3 "" H 16180 8060 60  0000 C CNN
	1    16200 8150
	1    0    0    -1  
$EndComp
$Comp
L Power_Port:GND #PWR038
U 1 1 5DFF4EF0
P 15050 9050
F 0 "#PWR038" H 15050 8880 50  0001 C CNN
F 1 "GND" H 15050 8950 50  0000 C CNN
F 2 "" H 15050 9150 60  0000 C CNN
F 3 "" H 15030 8960 60  0000 C CNN
	1    15050 9050
	1    0    0    -1  
$EndComp
Wire Wire Line
	15050 8850 15050 8950
$Comp
L Power_Port:GND #PWR039
U 1 1 5DFF53CB
P 16200 9050
F 0 "#PWR039" H 16200 8880 50  0001 C CNN
F 1 "GND" H 16200 8950 50  0000 C CNN
F 2 "" H 16200 9150 60  0000 C CNN
F 3 "" H 16180 8960 60  0000 C CNN
	1    16200 9050
	1    0    0    -1  
$EndComp
$Comp
L Resistors:RC0805JR-071KL R12
U 1 1 5DFF8C9E
P 1250 7900
F 0 "R12" V 1205 7958 60  0000 L CNN
F 1 "RC0805JR-071KL" H 1250 7600 50  0001 C CNN
F 2 "Resistors:R0805" H 1250 7000 30  0001 C CNN
F 3 "http://www.yageo.com/documents/recent/PYu-RC_Group_51_RoHS_L_7.pdf" H 1250 6950 30  0001 C CNN
F 4 "Digikey" H 1250 7500 60  0001 C CNN "Supplier"
F 5 "311-1.0KARCT-ND" H 1250 7400 60  0001 C CNN "Supplier Part Number"
F 6 "Yageo" H 1250 7300 60  0001 C CNN "Manufacturer"
F 7 "RC0805JR-071KL" H 1250 7200 60  0001 C CNN "Manufacturer Part Number"
F 8 "RES SMD 1K OHM 5% 1/8W 0805" H 1250 7100 60  0001 C CNN "Description"
F 9 "1k" V 1303 7958 50  0000 L CNN "Resistance (Ohms)"
F 10 "±5%" H 1660 7820 50  0001 C CNN "Tolerance (%)"
F 11 "1/8W" H 1250 7760 50  0001 C CNN "Power (Watts)"
	1    1250 7900
	0    1    1    0   
$EndComp
$Comp
L Resistors:RC0805JR-071KL R13
U 1 1 5DFF9189
P 2900 7900
F 0 "R13" V 2855 7958 60  0000 L CNN
F 1 "RC0805JR-071KL" H 2900 7600 50  0001 C CNN
F 2 "Resistors:R0805" H 2900 7000 30  0001 C CNN
F 3 "http://www.yageo.com/documents/recent/PYu-RC_Group_51_RoHS_L_7.pdf" H 2900 6950 30  0001 C CNN
F 4 "Digikey" H 2900 7500 60  0001 C CNN "Supplier"
F 5 "311-1.0KARCT-ND" H 2900 7400 60  0001 C CNN "Supplier Part Number"
F 6 "Yageo" H 2900 7300 60  0001 C CNN "Manufacturer"
F 7 "RC0805JR-071KL" H 2900 7200 60  0001 C CNN "Manufacturer Part Number"
F 8 "RES SMD 1K OHM 5% 1/8W 0805" H 2900 7100 60  0001 C CNN "Description"
F 9 "1k" V 2953 7958 50  0000 L CNN "Resistance (Ohms)"
F 10 "±5%" H 3310 7820 50  0001 C CNN "Tolerance (%)"
F 11 "1/8W" H 2900 7760 50  0001 C CNN "Power (Watts)"
	1    2900 7900
	0    1    1    0   
$EndComp
$Comp
L Resistors:Resistor R1
U 1 1 5DFFB9E3
P 4950 3600
F 0 "R1" H 4700 3650 60  0000 C CNN
F 1 "Resistor" H 4950 3300 50  0001 C CNN
F 2 "Resistors:R0805" H 4950 2700 30  0001 C CNN
F 3 "" H 4950 2650 30  0001 C CNN
F 4 "Supplier" H 4950 3200 60  0001 C CNN "Supplier"
F 5 "Supplier Part Number" H 4950 3100 60  0001 C CNN "Supplier Part Number"
F 6 "Manufacturer" H 4950 3000 60  0001 C CNN "Manufacturer"
F 7 "Manufacturer Part Number" H 4950 2900 60  0001 C CNN "Manufacturer Part Number"
F 8 "Description" H 4950 2800 60  0001 C CNN "Description"
F 9 "22R" H 5200 3650 50  0000 C CNN "Resistance (Ohms)"
F 10 "Tolerance" H 4950 3704 50  0001 C CNN "Tolerance (%)"
F 11 "Power" H 4950 3703 50  0001 C CNN "Power (Watts)"
	1    4950 3600
	1    0    0    -1  
$EndComp
$Comp
L Resistors:Resistor R2
U 1 1 5DFFC310
P 4950 3700
F 0 "R2" H 4700 3750 60  0000 C CNN
F 1 "Resistor" H 4950 3400 50  0001 C CNN
F 2 "Resistors:R0805" H 4950 2800 30  0001 C CNN
F 3 "" H 4950 2750 30  0001 C CNN
F 4 "Supplier" H 4950 3300 60  0001 C CNN "Supplier"
F 5 "Supplier Part Number" H 4950 3200 60  0001 C CNN "Supplier Part Number"
F 6 "Manufacturer" H 4950 3100 60  0001 C CNN "Manufacturer"
F 7 "Manufacturer Part Number" H 4950 3000 60  0001 C CNN "Manufacturer Part Number"
F 8 "Description" H 4950 2900 60  0001 C CNN "Description"
F 9 "22R" H 5200 3750 50  0000 C CNN "Resistance (Ohms)"
F 10 "Tolerance" H 4950 3804 50  0001 C CNN "Tolerance (%)"
F 11 "Power" H 4950 3803 50  0001 C CNN "Power (Watts)"
	1    4950 3700
	1    0    0    -1  
$EndComp
$Comp
L Resistors:RC0805JR-071KL R3
U 1 1 5DFFD3D1
P 4950 3950
F 0 "R3" H 5200 3900 60  0000 C CNN
F 1 "RC0805JR-071KL" H 4950 3650 50  0001 C CNN
F 2 "Resistors:R0805" H 4950 3050 30  0001 C CNN
F 3 "http://www.yageo.com/documents/recent/PYu-RC_Group_51_RoHS_L_7.pdf" H 4950 3000 30  0001 C CNN
F 4 "Digikey" H 4950 3550 60  0001 C CNN "Supplier"
F 5 "311-1.0KARCT-ND" H 4950 3450 60  0001 C CNN "Supplier Part Number"
F 6 "Yageo" H 4950 3350 60  0001 C CNN "Manufacturer"
F 7 "RC0805JR-071KL" H 4950 3250 60  0001 C CNN "Manufacturer Part Number"
F 8 "RES SMD 1K OHM 5% 1/8W 0805" H 4950 3150 60  0001 C CNN "Description"
F 9 "1k" H 4750 3900 50  0000 C CNN "Resistance (Ohms)"
F 10 "±5%" H 5360 3870 50  0001 C CNN "Tolerance (%)"
F 11 "1/8W" H 4950 3810 50  0001 C CNN "Power (Watts)"
	1    4950 3950
	-1   0    0    1   
$EndComp
$Comp
L Capacitors:C1608X8L1C105K080AC C6
U 1 1 5D97A38D
P 8500 3850
F 0 "C6" H 8700 3800 60  0000 C CNN
F 1 "C1608X8L1C105K080AC" H 8500 3400 60  0001 C CNN
F 2 "Capacitors:C0603" H 8500 2800 60  0001 C CNN
F 3 "https://product.tdk.com/info/en/catalog/spec/mlccspec_commercial_hightemp_en.pdf" H 8500 2700 60  0001 C CNN
F 4 "Digikey" H 8500 3300 60  0001 C CNN "Supplier"
F 5 "445-175407-1-ND" H 8500 3200 60  0001 C CNN "Supplier Part Number"
F 6 "TDK Corporation" H 8500 3100 60  0001 C CNN "Manufacturer"
F 7 "C1608X8L1C105K080AC" H 8500 3000 60  0001 C CNN "Manufacturer Part Number"
F 8 "CAP CER 1UF 16V X8L 0603" H 8500 2900 60  0001 C CNN "Description"
F 9 "1µF" H 8300 3800 50  0000 C CNN "Capacitance (Farad)"
F 10 "±10%" H 8950 3700 50  0001 C CNN "Tolerance (%)"
F 11 "16V" V 8598 3955 50  0001 L CNN "Voltage Rated (Volt)"
	1    8500 3850
	-1   0    0    1   
$EndComp
$Comp
L Capacitors:C1608X8L1C105K080AC C4
U 1 1 5D975C2E
P 8500 3650
F 0 "C4" H 8700 3600 60  0000 C CNN
F 1 "C1608X8L1C105K080AC" H 8500 3200 60  0001 C CNN
F 2 "Capacitors:C0603" H 8500 2600 60  0001 C CNN
F 3 "https://product.tdk.com/info/en/catalog/spec/mlccspec_commercial_hightemp_en.pdf" H 8500 2500 60  0001 C CNN
F 4 "Digikey" H 8500 3100 60  0001 C CNN "Supplier"
F 5 "445-175407-1-ND" H 8500 3000 60  0001 C CNN "Supplier Part Number"
F 6 "TDK Corporation" H 8500 2900 60  0001 C CNN "Manufacturer"
F 7 "C1608X8L1C105K080AC" H 8500 2800 60  0001 C CNN "Manufacturer Part Number"
F 8 "CAP CER 1UF 16V X8L 0603" H 8500 2700 60  0001 C CNN "Description"
F 9 "1µF" H 8300 3600 50  0000 C CNN "Capacitance (Farad)"
F 10 "±10%" H 8950 3500 50  0001 C CNN "Tolerance (%)"
F 11 "16V" V 8598 3755 50  0001 L CNN "Voltage Rated (Volt)"
	1    8500 3650
	-1   0    0    1   
$EndComp
$Comp
L Capacitors:C1608X8L1C105K080AC C2
U 1 1 5D99D0FA
P 8500 3450
F 0 "C2" H 8700 3400 60  0000 C CNN
F 1 "C1608X8L1C105K080AC" H 8500 3000 60  0001 C CNN
F 2 "Capacitors:C0603" H 8500 2400 60  0001 C CNN
F 3 "https://product.tdk.com/info/en/catalog/spec/mlccspec_commercial_hightemp_en.pdf" H 8500 2300 60  0001 C CNN
F 4 "Digikey" H 8500 2900 60  0001 C CNN "Supplier"
F 5 "445-175407-1-ND" H 8500 2800 60  0001 C CNN "Supplier Part Number"
F 6 "TDK Corporation" H 8500 2700 60  0001 C CNN "Manufacturer"
F 7 "C1608X8L1C105K080AC" H 8500 2600 60  0001 C CNN "Manufacturer Part Number"
F 8 "CAP CER 1UF 16V X8L 0603" H 8500 2500 60  0001 C CNN "Description"
F 9 "1µF" H 8300 3400 50  0000 C CNN "Capacitance (Farad)"
F 10 "±10%" H 8950 3300 50  0001 C CNN "Tolerance (%)"
F 11 "16V" V 8598 3555 50  0001 L CNN "Voltage Rated (Volt)"
	1    8500 3450
	-1   0    0    1   
$EndComp
$Comp
L Capacitors:C1608X8L1C105K080AC C5
U 1 1 5D979D4A
P 8000 3750
F 0 "C5" H 8200 3700 60  0000 C CNN
F 1 "C1608X8L1C105K080AC" H 8000 3300 60  0001 C CNN
F 2 "Capacitors:C0603" H 8000 2700 60  0001 C CNN
F 3 "https://product.tdk.com/info/en/catalog/spec/mlccspec_commercial_hightemp_en.pdf" H 8000 2600 60  0001 C CNN
F 4 "Digikey" H 8000 3200 60  0001 C CNN "Supplier"
F 5 "445-175407-1-ND" H 8000 3100 60  0001 C CNN "Supplier Part Number"
F 6 "TDK Corporation" H 8000 3000 60  0001 C CNN "Manufacturer"
F 7 "C1608X8L1C105K080AC" H 8000 2900 60  0001 C CNN "Manufacturer Part Number"
F 8 "CAP CER 1UF 16V X8L 0603" H 8000 2800 60  0001 C CNN "Description"
F 9 "1µF" H 7800 3700 50  0000 C CNN "Capacitance (Farad)"
F 10 "±10%" H 8450 3600 50  0001 C CNN "Tolerance (%)"
F 11 "16V" V 8098 3855 50  0001 L CNN "Voltage Rated (Volt)"
	1    8000 3750
	-1   0    0    1   
$EndComp
$Comp
L Capacitors:C1608X8L1C105K080AC C3
U 1 1 5D975302
P 8000 3550
F 0 "C3" H 8200 3500 60  0000 C CNN
F 1 "C1608X8L1C105K080AC" H 8000 3100 60  0001 C CNN
F 2 "Capacitors:C0603" H 8000 2500 60  0001 C CNN
F 3 "https://product.tdk.com/info/en/catalog/spec/mlccspec_commercial_hightemp_en.pdf" H 8000 2400 60  0001 C CNN
F 4 "Digikey" H 8000 3000 60  0001 C CNN "Supplier"
F 5 "445-175407-1-ND" H 8000 2900 60  0001 C CNN "Supplier Part Number"
F 6 "TDK Corporation" H 8000 2800 60  0001 C CNN "Manufacturer"
F 7 "C1608X8L1C105K080AC" H 8000 2700 60  0001 C CNN "Manufacturer Part Number"
F 8 "CAP CER 1UF 16V X8L 0603" H 8000 2600 60  0001 C CNN "Description"
F 9 "1µF" H 7800 3500 50  0000 C CNN "Capacitance (Farad)"
F 10 "±10%" H 8450 3400 50  0001 C CNN "Tolerance (%)"
F 11 "16V" V 8098 3655 50  0001 L CNN "Voltage Rated (Volt)"
	1    8000 3550
	-1   0    0    1   
$EndComp
$Comp
L Capacitors:C1608X8L1C105K080AC C7
U 1 1 5D9119E7
P 7700 4050
F 0 "C7" H 7900 4000 60  0000 C CNN
F 1 "C1608X8L1C105K080AC" H 7700 3600 60  0001 C CNN
F 2 "Capacitors:C0603" H 7700 3000 60  0001 C CNN
F 3 "https://product.tdk.com/info/en/catalog/spec/mlccspec_commercial_hightemp_en.pdf" H 7700 2900 60  0001 C CNN
F 4 "Digikey" H 7700 3500 60  0001 C CNN "Supplier"
F 5 "445-175407-1-ND" H 7700 3400 60  0001 C CNN "Supplier Part Number"
F 6 "TDK Corporation" H 7700 3300 60  0001 C CNN "Manufacturer"
F 7 "C1608X8L1C105K080AC" H 7700 3200 60  0001 C CNN "Manufacturer Part Number"
F 8 "CAP CER 1UF 16V X8L 0603" H 7700 3100 60  0001 C CNN "Description"
F 9 "1µF" H 7500 4000 50  0000 C CNN "Capacitance (Farad)"
F 10 "±10%" H 8150 3900 50  0001 C CNN "Tolerance (%)"
F 11 "16V" V 7798 4155 50  0001 L CNN "Voltage Rated (Volt)"
	1    7700 4050
	-1   0    0    1   
$EndComp
$Comp
L Capacitors:C1608X8L1C105K080AC C18
U 1 1 5D973A6F
P 12100 5350
F 0 "C18" H 12300 5300 60  0000 C CNN
F 1 "C1608X8L1C105K080AC" H 12100 4900 60  0001 C CNN
F 2 "Capacitors:C0603" H 12100 4300 60  0001 C CNN
F 3 "https://product.tdk.com/info/en/catalog/spec/mlccspec_commercial_hightemp_en.pdf" H 12100 4200 60  0001 C CNN
F 4 "Digikey" H 12100 4800 60  0001 C CNN "Supplier"
F 5 "445-175407-1-ND" H 12100 4700 60  0001 C CNN "Supplier Part Number"
F 6 "TDK Corporation" H 12100 4600 60  0001 C CNN "Manufacturer"
F 7 "C1608X8L1C105K080AC" H 12100 4500 60  0001 C CNN "Manufacturer Part Number"
F 8 "CAP CER 1UF 16V X8L 0603" H 12100 4400 60  0001 C CNN "Description"
F 9 "1µF" H 11900 5300 50  0000 C CNN "Capacitance (Farad)"
F 10 "±10%" H 12550 5200 50  0001 C CNN "Tolerance (%)"
F 11 "16V" V 12198 5455 50  0001 L CNN "Voltage Rated (Volt)"
	1    12100 5350
	-1   0    0    1   
$EndComp
$Comp
L Capacitors:C1608X8L1C105K080AC C17
U 1 1 5D9D6FE0
P 9450 5350
F 0 "C17" H 9650 5300 60  0000 C CNN
F 1 "C1608X8L1C105K080AC" H 9450 4900 60  0001 C CNN
F 2 "Capacitors:C0603" H 9450 4300 60  0001 C CNN
F 3 "https://product.tdk.com/info/en/catalog/spec/mlccspec_commercial_hightemp_en.pdf" H 9450 4200 60  0001 C CNN
F 4 "Digikey" H 9450 4800 60  0001 C CNN "Supplier"
F 5 "445-175407-1-ND" H 9450 4700 60  0001 C CNN "Supplier Part Number"
F 6 "TDK Corporation" H 9450 4600 60  0001 C CNN "Manufacturer"
F 7 "C1608X8L1C105K080AC" H 9450 4500 60  0001 C CNN "Manufacturer Part Number"
F 8 "CAP CER 1UF 16V X8L 0603" H 9450 4400 60  0001 C CNN "Description"
F 9 "1µF" H 9250 5300 50  0000 C CNN "Capacitance (Farad)"
F 10 "±10%" H 9900 5200 50  0001 C CNN "Tolerance (%)"
F 11 "16V" V 9548 5455 50  0001 L CNN "Voltage Rated (Volt)"
	1    9450 5350
	-1   0    0    1   
$EndComp
$Comp
L Capacitors:C1608X8L1C105K080AC C14
U 1 1 5D9D61AD
P 9450 4950
F 0 "C14" H 9650 4900 60  0000 C CNN
F 1 "C1608X8L1C105K080AC" H 9450 4500 60  0001 C CNN
F 2 "Capacitors:C0603" H 9450 3900 60  0001 C CNN
F 3 "https://product.tdk.com/info/en/catalog/spec/mlccspec_commercial_hightemp_en.pdf" H 9450 3800 60  0001 C CNN
F 4 "Digikey" H 9450 4400 60  0001 C CNN "Supplier"
F 5 "445-175407-1-ND" H 9450 4300 60  0001 C CNN "Supplier Part Number"
F 6 "TDK Corporation" H 9450 4200 60  0001 C CNN "Manufacturer"
F 7 "C1608X8L1C105K080AC" H 9450 4100 60  0001 C CNN "Manufacturer Part Number"
F 8 "CAP CER 1UF 16V X8L 0603" H 9450 4000 60  0001 C CNN "Description"
F 9 "1µF" H 9250 4900 50  0000 C CNN "Capacitance (Farad)"
F 10 "±10%" H 9900 4800 50  0001 C CNN "Tolerance (%)"
F 11 "16V" V 9548 5055 50  0001 L CNN "Voltage Rated (Volt)"
	1    9450 4950
	-1   0    0    1   
$EndComp
$Comp
L Resistors:RC0805JR-071ML R8
U 1 1 5E00C417
P 4400 5350
F 0 "R8" H 4400 5450 60  0000 C CNN
F 1 "RC0805JR-071ML" H 4400 5050 50  0001 C CNN
F 2 "Resistors:R0805" H 4400 4450 30  0001 C CNN
F 3 "http://www.yageo.com/documents/recent/PYu-RC_Group_51_RoHS_L_7.pdf" H 4400 4400 30  0001 C CNN
F 4 "Digikey" H 4400 4950 60  0001 C CNN "Supplier"
F 5 "311-1.0MARCT-ND" H 4400 4850 60  0001 C CNN "Supplier Part Number"
F 6 "Yageo" H 4400 4750 60  0001 C CNN "Manufacturer"
F 7 "RC0805JR-071ML" H 4400 4650 60  0001 C CNN "Manufacturer Part Number"
F 8 "RES SMD 1M OHM 5% 1/8W 0805" H 4400 4550 60  0001 C CNN "Description"
F 9 "1M" H 4400 5250 50  0000 C CNN "Resistance (Ohms)"
F 10 "±5%" H 4810 5270 50  0001 C CNN "Tolerance (%)"
F 11 "1/8W" H 4400 5210 50  0001 C CNN "Power (Watts)"
	1    4400 5350
	1    0    0    -1  
$EndComp
Wire Wire Line
	3800 5350 3800 5400
Wire Wire Line
	3800 4900 3800 5350
Connection ~ 3800 5350
Wire Wire Line
	4200 5350 3800 5350
$Comp
L Resistors:RC1206JR-070RL R14
U 1 1 5E08990C
P 14250 4400
F 0 "R14" H 14000 4450 60  0000 C CNN
F 1 "RC1206JR-070RL" H 14250 4100 50  0001 C CNN
F 2 "Resistors:R1206" H 14250 3500 30  0001 C CNN
F 3 "" H 14250 3450 30  0001 C CNN
F 4 "Digikey" H 14250 4000 60  0001 C CNN "Supplier"
F 5 "311-0.0ERCT-ND" H 14250 3900 60  0001 C CNN "Supplier Part Number"
F 6 "Yageo" H 14250 3800 60  0001 C CNN "Manufacturer"
F 7 "RC1206JR-070RL" H 14250 3700 60  0001 C CNN "Manufacturer Part Number"
F 8 "RES SMD 0 OHM JUMPER 1/4W 1206" H 14250 3600 60  0001 C CNN "Description"
F 9 "0" H 14450 4450 50  0000 C CNN "Resistance (Ohms)"
F 10 "0" H 14660 4320 50  0001 C CNN "Tolerance (%)"
F 11 "1/4W" H 14250 4260 50  0001 C CNN "Power (Watts)"
	1    14250 4400
	1    0    0    -1  
$EndComp
Wire Wire Line
	14450 4400 14750 4400
Wire Wire Line
	14050 4400 13600 4400
$Comp
L Resistors:RC1206JR-070RL R15
U 1 1 5E0B5C91
P 14250 4550
F 0 "R15" H 14000 4600 60  0000 C CNN
F 1 "RC1206JR-070RL" H 14250 4250 50  0001 C CNN
F 2 "Resistors:R1206" H 14250 3650 30  0001 C CNN
F 3 "" H 14250 3600 30  0001 C CNN
F 4 "Digikey" H 14250 4150 60  0001 C CNN "Supplier"
F 5 "311-0.0ERCT-ND" H 14250 4050 60  0001 C CNN "Supplier Part Number"
F 6 "Yageo" H 14250 3950 60  0001 C CNN "Manufacturer"
F 7 "RC1206JR-070RL" H 14250 3850 60  0001 C CNN "Manufacturer Part Number"
F 8 "RES SMD 0 OHM JUMPER 1/4W 1206" H 14250 3750 60  0001 C CNN "Description"
F 9 "0" H 14450 4600 50  0000 C CNN "Resistance (Ohms)"
F 10 "0" H 14660 4470 50  0001 C CNN "Tolerance (%)"
F 11 "1/4W" H 14250 4410 50  0001 C CNN "Power (Watts)"
	1    14250 4550
	1    0    0    -1  
$EndComp
Wire Wire Line
	14450 4550 14750 4550
Wire Wire Line
	14750 4400 14750 4550
Connection ~ 14750 4550
Wire Wire Line
	14750 4550 15000 4550
Wire Wire Line
	14050 4550 13850 4550
Wire Wire Line
	13850 4550 13850 6050
Wire Wire Line
	13850 6050 15000 6050
$Comp
L Connectors:ACJS-MHOM J1
U 1 1 5E17AA48
P 15500 3400
F 0 "J1" H 15550 3800 60  0000 R CNN
F 1 "ACJS-MHOM" H 15500 2900 60  0001 C CNN
F 2 "Connectors:ACJS-MHOM" H 15500 2300 60  0001 C CNN
F 3 "http://www.amphenol-sine.com/pdf/datasheet/ACJS-MHOM.pdf" H 15500 2200 60  0001 C CNN
F 4 "Digikey" H 15500 2800 60  0001 C CNN "Supplier"
F 5 "889-1818-ND" H 15500 2700 60  0001 C CNN "Supplier Part Number"
F 6 "Amphenol Sine Systems Corp" H 15500 2600 60  0001 C CNN "Manufacturer"
F 7 "ACJS-MHOM" H 15500 2500 60  0001 C CNN "Manufacturer Part Number"
F 8 "CONN JACK STEREO 1/4\" R/A" H 15500 2400 60  0001 C CNN "Description"
	1    15500 3400
	-1   0    0    -1  
$EndComp
Wire Wire Line
	15150 3500 15050 3500
Wire Wire Line
	15050 3500 15050 3600
Connection ~ 15050 3600
Wire Wire Line
	15050 3600 15150 3600
Wire Wire Line
	14700 3300 15050 3300
Wire Wire Line
	15150 3400 15050 3400
Wire Wire Line
	15050 3400 15050 3300
Connection ~ 15050 3300
Wire Wire Line
	15050 3300 15150 3300
Wire Wire Line
	14450 3100 15050 3100
Wire Wire Line
	15150 3200 15050 3200
Wire Wire Line
	15050 3200 15050 3100
Connection ~ 15050 3100
Wire Wire Line
	15050 3100 15150 3100
$Comp
L Capacitors:TAJA106K006RNJ C1
U 1 1 5D9321D3
P 5800 3000
F 0 "C1" H 5650 3050 60  0000 C CNN
F 1 "TAJA106K006RNJ" H 5800 2560 60  0001 C CNN
F 2 "Capacitors:C1206_polarized" H 5800 1950 60  0001 C CNN
F 3 "http://datasheets.avx.com/TAJ.pdf" H 5800 1850 60  0001 C CNN
F 4 "Digikey" H 5800 2450 60  0001 C CNN "Supplier"
F 5 "478-1653-1-ND" H 5800 2350 60  0001 C CNN "Supplier Part Number"
F 6 "AVX Corporation" H 5800 2250 60  0001 C CNN "Manufacturer"
F 7 "TAJA106K006RNJ" H 5800 2150 60  0001 C CNN "Manufacturer Part Number"
F 8 "CAP TANT 10UF 10% 6.3V 1206 4Ohm" H 5800 2050 60  0001 C CNN "Description"
F 9 "10µF" H 6000 3050 50  0000 C CNN "Capacitance (Farad)"
F 10 "±10%" H 6300 2850 60  0001 C CNN "Tolerance (%)"
F 11 "6.3V" H 6000 2950 50  0000 C CNN "Voltage Rated (Volt)"
	1    5800 3000
	1    0    0    -1  
$EndComp
$Comp
L Capacitors:TAJA106K006RNJ C8
U 1 1 5D9358A6
P 8450 4250
F 0 "C8" H 8300 4300 60  0000 C CNN
F 1 "TAJA106K006RNJ" H 8450 3810 60  0001 C CNN
F 2 "Capacitors:C1206_polarized" H 8450 3200 60  0001 C CNN
F 3 "http://datasheets.avx.com/TAJ.pdf" H 8450 3100 60  0001 C CNN
F 4 "Digikey" H 8450 3700 60  0001 C CNN "Supplier"
F 5 "478-1653-1-ND" H 8450 3600 60  0001 C CNN "Supplier Part Number"
F 6 "AVX Corporation" H 8450 3500 60  0001 C CNN "Manufacturer"
F 7 "TAJA106K006RNJ" H 8450 3400 60  0001 C CNN "Manufacturer Part Number"
F 8 "CAP TANT 10UF 10% 6.3V 1206 4Ohm" H 8450 3300 60  0001 C CNN "Description"
F 9 "10µF" H 8650 4300 50  0000 C CNN "Capacitance (Farad)"
F 10 "±10%" H 8950 4100 60  0001 C CNN "Tolerance (%)"
F 11 "6.3V" H 8650 4200 50  0001 C CNN "Voltage Rated (Volt)"
	1    8450 4250
	1    0    0    -1  
$EndComp
$Comp
L Capacitors:TAJA106K006RNJ C13
U 1 1 5D9371BE
P 8350 4800
F 0 "C13" H 8200 4850 60  0000 C CNN
F 1 "TAJA106K006RNJ" H 8350 4360 60  0001 C CNN
F 2 "Capacitors:C1206_polarized" H 8350 3750 60  0001 C CNN
F 3 "http://datasheets.avx.com/TAJ.pdf" H 8350 3650 60  0001 C CNN
F 4 "Digikey" H 8350 4250 60  0001 C CNN "Supplier"
F 5 "478-1653-1-ND" H 8350 4150 60  0001 C CNN "Supplier Part Number"
F 6 "AVX Corporation" H 8350 4050 60  0001 C CNN "Manufacturer"
F 7 "TAJA106K006RNJ" H 8350 3950 60  0001 C CNN "Manufacturer Part Number"
F 8 "CAP TANT 10UF 10% 6.3V 1206 4Ohm" H 8350 3850 60  0001 C CNN "Description"
F 9 "10µF" H 8550 4850 50  0000 C CNN "Capacitance (Farad)"
F 10 "±10%" H 8850 4650 60  0001 C CNN "Tolerance (%)"
F 11 "6.3V" H 8550 4750 50  0001 C CNN "Voltage Rated (Volt)"
	1    8350 4800
	1    0    0    -1  
$EndComp
$Comp
L Capacitors:TAJA106K006RNJ C12
U 1 1 5D937A23
P 7900 4700
F 0 "C12" H 7750 4750 60  0000 C CNN
F 1 "TAJA106K006RNJ" H 7900 4260 60  0001 C CNN
F 2 "Capacitors:C1206_polarized" H 7900 3650 60  0001 C CNN
F 3 "http://datasheets.avx.com/TAJ.pdf" H 7900 3550 60  0001 C CNN
F 4 "Digikey" H 7900 4150 60  0001 C CNN "Supplier"
F 5 "478-1653-1-ND" H 7900 4050 60  0001 C CNN "Supplier Part Number"
F 6 "AVX Corporation" H 7900 3950 60  0001 C CNN "Manufacturer"
F 7 "TAJA106K006RNJ" H 7900 3850 60  0001 C CNN "Manufacturer Part Number"
F 8 "CAP TANT 10UF 10% 6.3V 1206 4Ohm" H 7900 3750 60  0001 C CNN "Description"
F 9 "10µF" H 8100 4750 50  0000 C CNN "Capacitance (Farad)"
F 10 "±10%" H 8400 4550 60  0001 C CNN "Tolerance (%)"
F 11 "6.3V" H 8100 4650 50  0001 C CNN "Voltage Rated (Volt)"
	1    7900 4700
	1    0    0    -1  
$EndComp
$Comp
L Capacitors:TAJA106K006RNJ C9
U 1 1 5D93A101
P 10500 4300
F 0 "C9" H 10350 4350 60  0000 C CNN
F 1 "TAJA106K006RNJ" H 10500 3860 60  0001 C CNN
F 2 "Capacitors:C1206_polarized" H 10500 3250 60  0001 C CNN
F 3 "http://datasheets.avx.com/TAJ.pdf" H 10500 3150 60  0001 C CNN
F 4 "Digikey" H 10500 3750 60  0001 C CNN "Supplier"
F 5 "478-1653-1-ND" H 10500 3650 60  0001 C CNN "Supplier Part Number"
F 6 "AVX Corporation" H 10500 3550 60  0001 C CNN "Manufacturer"
F 7 "TAJA106K006RNJ" H 10500 3450 60  0001 C CNN "Manufacturer Part Number"
F 8 "CAP TANT 10UF 10% 6.3V 1206 4Ohm" H 10500 3350 60  0001 C CNN "Description"
F 9 "10µF" H 10700 4350 50  0000 C CNN "Capacitance (Farad)"
F 10 "±10%" H 11000 4150 60  0001 C CNN "Tolerance (%)"
F 11 "6.3V" H 10700 4250 50  0000 C CNN "Voltage Rated (Volt)"
	1    10500 4300
	1    0    0    -1  
$EndComp
$Comp
L Capacitors:TAJA106K006RNJ C15
U 1 1 5D93BEB9
P 12100 5050
F 0 "C15" H 11950 5100 60  0000 C CNN
F 1 "TAJA106K006RNJ" H 12100 4610 60  0001 C CNN
F 2 "Capacitors:C1206_polarized" H 12100 4000 60  0001 C CNN
F 3 "http://datasheets.avx.com/TAJ.pdf" H 12100 3900 60  0001 C CNN
F 4 "Digikey" H 12100 4500 60  0001 C CNN "Supplier"
F 5 "478-1653-1-ND" H 12100 4400 60  0001 C CNN "Supplier Part Number"
F 6 "AVX Corporation" H 12100 4300 60  0001 C CNN "Manufacturer"
F 7 "TAJA106K006RNJ" H 12100 4200 60  0001 C CNN "Manufacturer Part Number"
F 8 "CAP TANT 10UF 10% 6.3V 1206 4Ohm" H 12100 4100 60  0001 C CNN "Description"
F 9 "10µF" H 12300 5100 50  0000 C CNN "Capacitance (Farad)"
F 10 "±10%" H 12600 4900 60  0001 C CNN "Tolerance (%)"
F 11 "6.3V" H 12300 5000 50  0001 C CNN "Voltage Rated (Volt)"
	1    12100 5050
	1    0    0    -1  
$EndComp
$Comp
L Capacitors:TAJA106K006RNJ C16
U 1 1 5D93C1AD
P 12700 5150
F 0 "C16" H 12550 5200 60  0000 C CNN
F 1 "TAJA106K006RNJ" H 12700 4710 60  0001 C CNN
F 2 "Capacitors:C1206_polarized" H 12700 4100 60  0001 C CNN
F 3 "http://datasheets.avx.com/TAJ.pdf" H 12700 4000 60  0001 C CNN
F 4 "Digikey" H 12700 4600 60  0001 C CNN "Supplier"
F 5 "478-1653-1-ND" H 12700 4500 60  0001 C CNN "Supplier Part Number"
F 6 "AVX Corporation" H 12700 4400 60  0001 C CNN "Manufacturer"
F 7 "TAJA106K006RNJ" H 12700 4300 60  0001 C CNN "Manufacturer Part Number"
F 8 "CAP TANT 10UF 10% 6.3V 1206 4Ohm" H 12700 4200 60  0001 C CNN "Description"
F 9 "10µF" H 12900 5200 50  0000 C CNN "Capacitance (Farad)"
F 10 "±10%" H 13200 5000 60  0001 C CNN "Tolerance (%)"
F 11 "6.3V" H 12900 5100 50  0001 C CNN "Voltage Rated (Volt)"
	1    12700 5150
	1    0    0    -1  
$EndComp
$Comp
L Power_Port:PWR_FLAG #FLG0101
U 1 1 5D93F000
P 7900 3450
F 0 "#FLG0101" H 7900 3350 60  0001 C CNN
F 1 "PWR_FLAG" H 7900 3658 30  0000 C CNN
F 2 "" H 7900 3450 60  0000 C CNN
F 3 "" H 7900 3450 60  0000 C CNN
	1    7900 3450
	1    0    0    -1  
$EndComp
Connection ~ 7900 3450
Wire Wire Line
	7900 3450 8350 3450
$Comp
L Power_Port:PWR_FLAG #FLG0102
U 1 1 5D93FE4B
P 3250 3350
F 0 "#FLG0102" H 3250 3250 60  0001 C CNN
F 1 "PWR_FLAG" V 3250 3528 30  0000 L CNN
F 2 "" H 3250 3350 60  0000 C CNN
F 3 "" H 3250 3350 60  0000 C CNN
	1    3250 3350
	0    1    1    0   
$EndComp
Connection ~ 3250 3350
Wire Wire Line
	3250 3300 3250 3350
$Comp
L Power_Port:PWR_FLAG #FLG0103
U 1 1 5D952327
P 2000 4100
F 0 "#FLG0103" H 2000 4000 60  0001 C CNN
F 1 "PWR_FLAG" V 2000 4278 30  0000 L CNN
F 2 "" H 2000 4100 60  0000 C CNN
F 3 "" H 2000 4100 60  0000 C CNN
	1    2000 4100
	0    1    1    0   
$EndComp
Connection ~ 2000 4100
Wire Wire Line
	2000 4100 2000 4250
$Comp
L Power_Port:PWR_FLAG #FLG0104
U 1 1 5D952580
P 700 4100
F 0 "#FLG0104" H 700 4000 60  0001 C CNN
F 1 "PWR_FLAG" V 700 4278 30  0000 L CNN
F 2 "" H 700 4100 60  0000 C CNN
F 3 "" H 700 4100 60  0000 C CNN
	1    700  4100
	0    1    1    0   
$EndComp
Connection ~ 700  4100
Wire Wire Line
	700  4100 700  4250
$Comp
L Power_Port:PWR_FLAG #FLG0105
U 1 1 5D974D88
P 14450 3100
F 0 "#FLG0105" H 14450 3000 60  0001 C CNN
F 1 "PWR_FLAG" H 14450 3308 30  0000 C CNN
F 2 "" H 14450 3100 60  0000 C CNN
F 3 "" H 14450 3100 60  0000 C CNN
	1    14450 3100
	1    0    0    -1  
$EndComp
Connection ~ 14450 3100
Wire Wire Line
	7850 4050 8200 4050
Wire Wire Line
	7300 4250 7500 4250
Wire Wire Line
	8050 4200 8200 4200
Wire Wire Line
	8200 4200 8200 4050
Connection ~ 8200 4050
Wire Wire Line
	8200 4050 8750 4050
Wire Wire Line
	7650 4200 7500 4200
Wire Wire Line
	7500 4200 7500 4250
Connection ~ 7500 4250
Wire Wire Line
	7500 4250 8300 4250
$EndSCHEMATC
